\relax 
\catcode`"\active
\catcode`<\active
\catcode`>\active
\@nameuse{es@quoting}
\citation{fang}
\citation{dempster}
\citation{cioffi}
\citation{emciego}
\citation{robusto}
\select@language{spanish}
\@writefile{toc}{\select@language{spanish}}
\@writefile{lof}{\select@language{spanish}}
\@writefile{lot}{\select@language{spanish}}
\@writefile{toc}{\contentsline {section}{\numberline {1}Introducci\IeC {\'o}n}{1}}
\newlabel{sec:intro}{{1}{1}}
\citation{sthepens}
\citation{ljung}
\citation{robusto}
\@writefile{toc}{\contentsline {section}{\numberline {2}Identificaci\IeC {\'o}n MIMO}{2}}
\newlabel{sec:identificacion}{{2}{2}}
\@writefile{toc}{\contentsline {subsection}{\numberline {2.1}Modelo de canal}{2}}
\newlabel{sec:sistema}{{2.1}{2}}
\newlabel{eq:canal}{{1}{2}}
\newlabel{eq:sigma}{{4}{2}}
\@writefile{toc}{\contentsline {subsection}{\numberline {2.2}Algoritmo de identificaci\IeC {\'o}n}{2}}
\newlabel{eq:em}{{5}{2}}
\newlabel{eq:h_km1}{{6}{2}}
\newlabel{eq:h_ls}{{7}{2}}
\newlabel{eq:hcuadrados}{{8}{2}}
\newlabel{eq:hatx}{{9}{2}}
\citation{sthepens}
\citation{ksmulti}
\citation{leon-garcia}
\citation{ksmulti}
\citation{rosenblatt}
\citation{ksmulti}
\@writefile{toc}{\contentsline {section}{\numberline {3}Descripci\IeC {\'o}n del m\IeC {\'e}todo de validaci\IeC {\'o}n}{3}}
\newlabel{sec:descripcion}{{3}{3}}
\newlabel{eq:despeje}{{11}{3}}
\newlabel{eq:ksuni}{{12}{3}}
\newlabel{eq:indep}{{13}{3}}
\newlabel{eq:transformacion}{{15}{3}}
\@writefile{toc}{\contentsline {subsection}{\numberline {3.1}Validez del ensayo}{3}}
\@writefile{toc}{\contentsline {section}{\numberline {4}Implementaci\IeC {\'o}n del algoritmo}{3}}
\citation{emciego}
\newlabel{sec:resultados}{{4}{4}}
\@writefile{toc}{\contentsline {section}{\numberline {5}Resultados}{4}}
\@writefile{lof}{\contentsline {figure}{\numberline {1}{\ignorespaces Funci\IeC {\'o}n de m\IeC {\'a}xima verosimilitud que se necesita maximizar.}}{4}}
\newlabel{img:l}{{1}{4}}
\citation{jordan}
\@writefile{lof}{\contentsline {figure}{\numberline {2}{\ignorespaces Dos identificaciones de la misma transmisi\IeC {\'o}n, la primera rechazada y la segunda aceptada.}}{5}}
\newlabel{img:doble}{{2}{5}}
\@writefile{lof}{\contentsline {figure}{\numberline {3}{\ignorespaces Funci\IeC {\'o}n de verosimilitud usando una constelaci\IeC {\'o}n binaria.}}{5}}
\newlabel{fig:l_binaria}{{3}{5}}
\@writefile{lof}{\contentsline {figure}{\numberline {4}{\ignorespaces An\IeC {\'a}lisis del desempe\IeC {\~n}o del algoritmo.}}{5}}
\newlabel{img:histograma}{{4}{5}}
\citation{khamis}
\bibstyle{plain}
\bibdata{IEEEfull,rpic}
\bibcite{dempster}{1}
\bibcite{cioffi}{2}
\bibcite{fang}{3}
\bibcite{ksmulti}{4}
\bibcite{robusto}{5}
\bibcite{khamis}{6}
\bibcite{leon-garcia}{7}
\bibcite{ljung}{8}
\bibcite{emciego}{9}
\bibcite{rosenblatt}{10}
\bibcite{sthepens}{11}
\bibcite{jordan}{12}
\@writefile{lof}{\contentsline {figure}{\numberline {5}{\ignorespaces Valores de $D_{max}$ en funci\IeC {\'o}n de $\varepsilon $.}}{6}}
\newlabel{img:ks_error}{{5}{6}}
\@writefile{toc}{\contentsline {section}{\numberline {6}Conclusiones}{6}}
