\relax 
\@writefile{toc}{\contentsline {chapter}{\numberline {2}Estimaci\IeC {\'o}n de canal}{5}{chapter.2}}
\@writefile{lof}{\addvspace {10\p@ }}
\@writefile{lot}{\addvspace {10\p@ }}
\newlabel{sec:identificacion_ciega}{{2}{5}{Estimación de canal\relax }{chapter.2}{}}
\providecommand*\caption@xref[2]{\@setref\relax\@undefined{#1}}
\newlabel{fin:consta_orto}{{2.1(a)}{6}{Subfigure 2 2.1(a)\relax }{subfigure.2.1.1}{}}
\newlabel{sub@fin:consta_orto}{{(a)}{6}{Subfigure 2 2.1(a)\relax }{subfigure.2.1.1}{}}
\newlabel{fin:consta_anti}{{2.1(b)}{6}{Subfigure 2 2.1(b)\relax }{subfigure.2.1.2}{}}
\newlabel{sub@fin:consta_anti}{{(b)}{6}{Subfigure 2 2.1(b)\relax }{subfigure.2.1.2}{}}
\@writefile{lof}{\contentsline {figure}{\numberline {2.1}{\ignorespaces Ejemplos de constelaciones ortogonales y antipodales\relax }}{6}{figure.caption.6}}
\@writefile{lof}{\contentsline {subfigure}{\numberline{(a)}{\ignorespaces {Constelaci\IeC {\'o}n ortogonal}}}{6}{figure.caption.6}}
\@writefile{lof}{\contentsline {subfigure}{\numberline{(b)}{\ignorespaces {Constelaci\IeC {\'o}n antipodal}}}{6}{figure.caption.6}}
\newlabel{fin:consta_ejemplos}{{2.1}{6}{Ejemplos de constelaciones ortogonales y antipodales\relax \relax }{figure.caption.6}{}}
\@writefile{toc}{\contentsline {section}{\numberline {2.1}\IeC {\textquestiondown }Por qu\IeC {\'e} conocer el canal?}{6}{section.2.1}}
\@writefile{toc}{\contentsline {subsection}{\numberline {2.1.1}Detecci\IeC {\'o}n no coherente}{7}{subsection.2.1.1}}
\newlabel{eq:cod_orto}{{2.2}{7}{Detección no coherente\relax }{equation.2.1.2}{}}
\newlabel{eq:loglike}{{2.4}{7}{Detección no coherente\relax }{equation.2.1.4}{}}
\citation{tse}
\newlabel{eq:pe}{{2.6}{8}{Detección no coherente\relax }{equation.2.1.6}{}}
\newlabel{eq:SNR}{{2.8}{8}{Detección no coherente\relax }{equation.2.1.8}{}}
\newlabel{eq:pe_snr_orgto}{{2.9}{8}{Detección no coherente\relax }{equation.2.1.9}{}}
\@writefile{toc}{\contentsline {subsection}{\numberline {2.1.2}Detecci\IeC {\'o}n coherente}{8}{subsection.2.1.2}}
\citation{wozencraft}
\newlabel{eq:snr_awgn1}{{2.12}{9}{Detección coherente\relax }{equation.2.1.12}{}}
\@writefile{toc}{\contentsline {subsection}{\numberline {2.1.3}Comparaci\IeC {\'o}n de ambos sistemas}{9}{subsection.2.1.3}}
\@writefile{lof}{\contentsline {figure}{\numberline {2.2}{\ignorespaces Comparaci\IeC {\'o}n de probabilidades de error\relax }}{10}{figure.caption.7}}
\newlabel{fin:ber}{{2.2}{10}{Comparación de probabilidades de error\relax \relax }{figure.caption.7}{}}
\@writefile{toc}{\contentsline {section}{\numberline {2.2}Identificaci\IeC {\'o}n de par\IeC {\'a}metros}{10}{section.2.2}}
\citation{stark}
\@writefile{toc}{\contentsline {subsection}{\numberline {2.2.1}Estimador de m\IeC {\'a}xima verosimilitud}{11}{subsection.2.2.1}}
\newlabel{sec:mle}{{2.2.1}{11}{Estimador de máxima verosimilitud\relax }{subsection.2.2.1}{}}
\newlabel{eq:def_fun_vero}{{2.14}{11}{Estimador de máxima verosimilitud\relax }{equation.2.2.14}{}}
\newlabel{eq:loglik}{{2.19}{12}{Estimador de máxima verosimilitud\relax }{equation.2.2.19}{}}
\newlabel{eq:deriv}{{2.20}{12}{Estimador de máxima verosimilitud\relax }{equation.2.2.20}{}}
\citation{moon}
\citation{dempster}
\@writefile{toc}{\contentsline {subsection}{\numberline {2.2.2}Algoritmo Expectation Maximization}{13}{subsection.2.2.2}}
\newlabel{seq:algo_em}{{2.2.2}{13}{Algoritmo Expectation Maximization\relax }{subsection.2.2.2}{}}
\newlabel{eq:diffloglik}{{2.27}{13}{Algoritmo Expectation Maximization\relax }{equation.2.2.27}{}}
\newlabel{eq:diffloglik2}{{2.29}{14}{Algoritmo Expectation Maximization\relax }{equation.2.2.29}{}}
\newlabel{eq:aplicarjensne}{{2.31}{14}{Algoritmo Expectation Maximization\relax }{equation.2.2.31}{}}
\newlabel{eq:delta}{{2.32}{14}{Algoritmo Expectation Maximization\relax }{equation.2.2.32}{}}
\citation{moon}
\citation{libro_em}
\newlabel{eq:desigualdad}{{2.33}{15}{Algoritmo Expectation Maximization\relax }{equation.2.2.33}{}}
\newlabel{eq:thetakmas1}{{2.34}{15}{Algoritmo Expectation Maximization\relax }{equation.2.2.34}{}}
\newlabel{eq:theta_k+1}{{2.35}{15}{Algoritmo Expectation Maximization\relax }{equation.2.2.35}{}}
\@writefile{lof}{\contentsline {figure}{\numberline {2.3}{\ignorespaces Representaci\IeC {\'o}n del canal MIMO utilizado.\relax }}{16}{figure.caption.8}}
\newlabel{fig:canal_mimo}{{2.3}{16}{Representación del canal MIMO utilizado.\relax \relax }{figure.caption.8}{}}
\@writefile{toc}{\contentsline {subsection}{\numberline {2.2.3}Convergencia del algoritmo EM}{16}{subsection.2.2.3}}
\@writefile{toc}{\contentsline {subsection}{\numberline {2.2.4}Canal utilizado en este trabajo}{16}{subsection.2.2.4}}
\newlabel{sec:sistema}{{2.2.4}{16}{Canal utilizado en este trabajo\relax }{subsection.2.2.4}{}}
\newlabel{eq:canal_mimo}{{2.39}{16}{Canal utilizado en este trabajo\relax }{equation.2.2.39}{}}
\newlabel{eq:a}{{2.2.4}{17}{Canal utilizado en este trabajo\relax }{equation.2.2.39}{}}
\newlabel{pdex2}{{2.40}{17}{Canal utilizado en este trabajo\relax }{equation.2.2.40}{}}
\@writefile{toc}{\contentsline {subsection}{\numberline {2.2.5}Desarrollo del estimador}{17}{subsection.2.2.5}}
\newlabel{seq:aplicacion_al_canal}{{2.2.5}{17}{Desarrollo del estimador\relax }{subsection.2.2.5}{}}
\newlabel{estimador}{{2.41}{17}{Desarrollo del estimador\relax }{equation.2.2.41}{}}
\newlabel{esperanza}{{2.42}{17}{Desarrollo del estimador\relax }{equation.2.2.42}{}}
\newlabel{pdeydadox}{{2.44}{18}{Desarrollo del estimador\relax }{equation.2.2.44}{}}
\newlabel{pdey}{{2.46}{18}{Desarrollo del estimador\relax }{equation.2.2.46}{}}
\newlabel{pdexdadoy}{{2.47}{18}{Desarrollo del estimador\relax }{equation.2.2.47}{}}
\newlabel{log}{{2.48}{18}{Desarrollo del estimador\relax }{equation.2.2.48}{}}
\newlabel{q}{{2.49}{19}{Desarrollo del estimador\relax }{equation.2.2.49}{}}
\newlabel{qderiv}{{2.50}{19}{Desarrollo del estimador\relax }{equation.2.2.50}{}}
\citation{fang}
\citation{cioffi}
\@writefile{toc}{\contentsline {section}{\numberline {2.3}Estimaci\IeC {\'o}n ciega de canal}{20}{section.2.3}}
\@writefile{toc}{\contentsline {subsection}{\numberline {2.3.1}Identificabilidad del canal}{20}{subsection.2.3.1}}
\citation{cioffi}
\newlabel{eq:iden}{{2.53}{21}{Identificabilidad del canal\relax }{equation.2.3.53}{}}
\newlabel{eq:iden_ciego}{{2.54}{21}{Identificabilidad del canal\relax }{equation.2.3.54}{}}
\citation{cioffi}
\citation{larssonblock}
\@writefile{toc}{\contentsline {subsection}{\numberline {2.3.2}Forma de la funci\IeC {\'o}n de verosimilitud}{22}{subsection.2.3.2}}
\newlabel{seq:forma_vero}{{2.3.2}{22}{Forma de la función de verosimilitud\relax }{subsection.2.3.2}{}}
\@writefile{lof}{\contentsline {figure}{\numberline {2.4}{\ignorespaces Representaci\IeC {\'o}n del canal utilizado\relax }}{23}{figure.caption.9}}
\newlabel{fig:canal_miso}{{2.4}{23}{Representación del canal utilizado\relax \relax }{figure.caption.9}{}}
\newlabel{fig:vero_uni}{{2.5(a)}{23}{Subfigure 2 2.5(a)\relax }{subfigure.2.5.1}{}}
\newlabel{sub@fig:vero_uni}{{(a)}{23}{Subfigure 2 2.5(a)\relax }{subfigure.2.5.1}{}}
\newlabel{fig:vero_4niveles}{{2.5(b)}{23}{Subfigure 2 2.5(b)\relax }{subfigure.2.5.2}{}}
\newlabel{sub@fig:vero_4niveles}{{(b)}{23}{Subfigure 2 2.5(b)\relax }{subfigure.2.5.2}{}}
\@writefile{lof}{\contentsline {figure}{\numberline {2.5}{\ignorespaces Comparaci\IeC {\'o}n de funciones de verosimilitud\relax }}{23}{figure.caption.10}}
\@writefile{lof}{\contentsline {subfigure}{\numberline{(a)}{\ignorespaces {$\mathcal {C}=\delimiter "4266308 \pm 1 \delimiter "5267309 $}}}{23}{figure.caption.10}}
\@writefile{lof}{\contentsline {subfigure}{\numberline{(b)}{\ignorespaces {$\mathcal {C}=\delimiter "4266308 \pm 1, \pm 3 \delimiter "5267309 $}}}{23}{figure.caption.10}}
\newlabel{fig:veros}{{2.5}{23}{Comparación de funciones de verosimilitud\relax \relax }{figure.caption.10}{}}
\newlabel{eq:canal_miso}{{2.59}{23}{Forma de la función de verosimilitud\relax }{equation.2.3.59}{}}
\newlabel{pdex}{{2.60}{23}{Forma de la función de verosimilitud\relax }{equation.2.3.60}{}}
\citation{cioffi}
\citation{LiandLiu}
\citation{LiandLuxi}
\newlabel{eq:vero}{{2.61}{24}{Forma de la función de verosimilitud\relax }{equation.2.3.61}{}}
\@writefile{toc}{\contentsline {subsection}{\numberline {2.3.3}Dependencia de las condiciones iniciales}{24}{subsection.2.3.3}}
\newlabel{sec:variantes}{{2.3.3}{24}{Dependencia de las condiciones iniciales\relax }{subsection.2.3.3}{}}
\citation{emciego}
\citation{robusto}
\citation{robusto}
\@writefile{lof}{\contentsline {figure}{\numberline {2.6}{\ignorespaces Dos estimaciones del mismo canal con diferentes condiciones iniciales.\relax }}{25}{figure.caption.11}}
\newlabel{fig:correcto_incorrecto}{{2.6}{25}{Dos estimaciones del mismo canal con diferentes condiciones iniciales.\relax \relax }{figure.caption.11}{}}
\citation{ljung}
\newlabel{eq:fig_error}{{2.65}{26}{Dependencia de las condiciones iniciales\relax }{equation.2.3.65}{}}
\@setckpt{estimacion_ciega}{
\setcounter{page}{27}
\setcounter{equation}{65}
\setcounter{enumi}{0}
\setcounter{enumii}{0}
\setcounter{enumiii}{0}
\setcounter{enumiv}{0}
\setcounter{footnote}{7}
\setcounter{mpfootnote}{0}
\setcounter{part}{0}
\setcounter{chapter}{2}
\setcounter{section}{3}
\setcounter{subsection}{3}
\setcounter{subsubsection}{0}
\setcounter{paragraph}{0}
\setcounter{subparagraph}{0}
\setcounter{figure}{6}
\setcounter{table}{0}
\setcounter{subfigure}{0}
\setcounter{lofdepth}{1}
\setcounter{subtable}{0}
\setcounter{lotdepth}{1}
\setcounter{parentequation}{0}
\setcounter{ContinuedFloat}{0}
\setcounter{Item}{0}
\setcounter{Hfootnote}{7}
\setcounter{section@level}{2}
}
