\relax 
\@writefile{toc}{\contentsline {chapter}{\numberline {4}Ensayo de ajuste Kolmogorov-Smirnov}{37}{chapter.4}}
\@writefile{lof}{\addvspace {10\p@ }}
\@writefile{lot}{\addvspace {10\p@ }}
\newlabel{sec:ks}{{4}{37}{Ensayo de ajuste Kolmogorov-Smirnov\relax }{chapter.4}{}}
\@writefile{toc}{\contentsline {section}{\numberline {4.1}Ensayo Kolmogorov-Smirnov univariable}{38}{section.4.1}}
\citation{leon-garcia}
\@writefile{lof}{\contentsline {figure}{\numberline {4.1}{\ignorespaces Representaci\IeC {\'o}n gr\IeC {\'a}fica del ensayo Kolmogorov-Smirnov\relax }}{39}{figure.caption.19}}
\newlabel{fig:ks}{{4.1}{39}{Representación gráfica del ensayo Kolmogorov-Smirnov\relax \relax }{figure.caption.19}{}}
\newlabel{eq:ksuni}{{4.1}{39}{Ensayo Kolmogorov-Smirnov univariable\relax }{equation.4.1.1}{}}
\newlabel{eq:indep}{{4.2}{39}{Ensayo Kolmogorov-Smirnov univariable\relax }{equation.4.1.2}{}}
\citation{handbook}
\citation{ksmulti}
\citation{rosenblatt}
\@writefile{toc}{\contentsline {section}{\numberline {4.2}Ensayo Kolmogorov-Smirnov multivariable}{40}{section.4.2}}
\newlabel{sec:ks_multi}{{4.2}{40}{Ensayo Kolmogorov-Smirnov multivariable\relax }{section.4.2}{}}
\newlabel{eq:ks_m}{{4.3}{41}{Ensayo Kolmogorov-Smirnov multivariable\relax }{equation.4.2.3}{}}
\newlabel{eq:transformacion}{{4.4}{41}{Ensayo Kolmogorov-Smirnov multivariable\relax }{equation.4.2.4}{}}
\@writefile{toc}{\contentsline {subsection}{\numberline {4.2.1}Transformaci\IeC {\'o}n de Rosenblatt}{41}{subsection.4.2.1}}
\newlabel{sec:rosenblatt}{{4.2.1}{41}{Transformación de Rosenblatt\relax }{subsection.4.2.1}{}}
\citation{ksmulti}
\@writefile{toc}{\contentsline {subsection}{\numberline {4.2.2}Uso de la transformada en el ensayo KS}{42}{subsection.4.2.2}}
\citation{ksmulti}
\@writefile{toc}{\contentsline {section}{\numberline {4.3}Implementaci\IeC {\'o}n del ensayo KS multivariable}{43}{section.4.3}}
\newlabel{sec:implementacion_ks}{{4.3}{43}{Implementación del ensayo KS multivariable\relax }{section.4.3}{}}
\@writefile{lof}{\contentsline {figure}{\numberline {4.2}{\ignorespaces Puntos notables calculados a partir de una muestra dada.\relax }}{44}{figure.caption.21}}
\newlabel{fig:notables}{{4.2}{44}{Puntos notables calculados a partir de una muestra dada.\relax \relax }{figure.caption.21}{}}
\citation{ksmulti}
\newlabel{pag:ks_valores}{{4.3}{45}{Implementación del ensayo KS multivariable\relax }{Item.11}{}}
\@setckpt{kolmogorov}{
\setcounter{page}{46}
\setcounter{equation}{9}
\setcounter{enumi}{6}
\setcounter{enumii}{0}
\setcounter{enumiii}{0}
\setcounter{enumiv}{0}
\setcounter{footnote}{2}
\setcounter{mpfootnote}{0}
\setcounter{part}{0}
\setcounter{chapter}{4}
\setcounter{section}{3}
\setcounter{subsection}{0}
\setcounter{subsubsection}{0}
\setcounter{paragraph}{0}
\setcounter{subparagraph}{0}
\setcounter{figure}{2}
\setcounter{table}{0}
\setcounter{subfigure}{0}
\setcounter{lofdepth}{1}
\setcounter{subtable}{0}
\setcounter{lotdepth}{1}
\setcounter{parentequation}{0}
\setcounter{ContinuedFloat}{0}
\setcounter{Item}{11}
\setcounter{Hfootnote}{10}
\setcounter{section@level}{1}
}
