\relax 
\@writefile{toc}{\contentsline {chapter}{\numberline {5}Discusi\IeC {\'o}n de resultados}{47}{chapter.5}}
\@writefile{lof}{\addvspace {10\p@ }}
\@writefile{lot}{\addvspace {10\p@ }}
\newlabel{sec:resultados}{{5}{47}{Discusión de resultados\relax }{chapter.5}{}}
\@writefile{toc}{\contentsline {section}{\numberline {5.1}Validaci\IeC {\'o}n ciega de modelos}{47}{section.5.1}}
\@writefile{toc}{\contentsline {subsection}{\numberline {5.1.1}Prueba de la validez del m\IeC {\'e}todo}{47}{subsection.5.1.1}}
\@writefile{lof}{\contentsline {figure}{\numberline {5.1}{\ignorespaces An\IeC {\'a}lisis del desempe\IeC {\~n}o del algoritmo.\relax }}{48}{figure.caption.22}}
\newlabel{img:histograma}{{5.1}{48}{Análisis del desempeño del algoritmo.\relax \relax }{figure.caption.22}{}}
\@writefile{lof}{\contentsline {figure}{\numberline {5.2}{\ignorespaces Valores de $D_{max}$ en funci\IeC {\'o}n de $\vartheta $.\relax }}{49}{figure.caption.23}}
\newlabel{img:ks_error}{{5.2}{49}{Valores de $D_{max}$ en función de $\vartheta $.\relax \relax }{figure.caption.23}{}}
\@writefile{toc}{\contentsline {section}{\numberline {5.2}Desempe\IeC {\~n}o del algoritmo de validaci\IeC {\'o}n}{49}{section.5.2}}
\@writefile{lof}{\contentsline {figure}{\numberline {5.3}{\ignorespaces Rendimiento del validador con diferente SNR.\relax }}{50}{figure.caption.24}}
\newlabel{fig:multi_snr}{{5.3}{50}{Rendimiento del validador con diferente SNR.\relax \relax }{figure.caption.24}{}}
\@writefile{toc}{\contentsline {subsection}{\numberline {5.2.1}Comportamiento general}{50}{subsection.5.2.1}}
\citation{jordan}
\newlabel{fig:pesos_bien_aceptado}{{5.4(a)}{52}{Subfigure 5 5.4(a)\relax }{subfigure.5.4.1}{}}
\newlabel{sub@fig:pesos_bien_aceptado}{{(a)}{52}{Subfigure 5 5.4(a)\relax }{subfigure.5.4.1}{}}
\newlabel{fig:pesos_bien_rechazado}{{5.4(b)}{52}{Subfigure 5 5.4(b)\relax }{subfigure.5.4.2}{}}
\newlabel{sub@fig:pesos_bien_rechazado}{{(b)}{52}{Subfigure 5 5.4(b)\relax }{subfigure.5.4.2}{}}
\newlabel{fig:pesos_mal_aceptado}{{5.4(c)}{52}{Subfigure 5 5.4(c)\relax }{subfigure.5.4.3}{}}
\newlabel{sub@fig:pesos_mal_aceptado}{{(c)}{52}{Subfigure 5 5.4(c)\relax }{subfigure.5.4.3}{}}
\newlabel{fig:pesos_mal_rechazado}{{5.4(d)}{52}{Subfigure 5 5.4(d)\relax }{subfigure.5.4.4}{}}
\newlabel{sub@fig:pesos_mal_rechazado}{{(d)}{52}{Subfigure 5 5.4(d)\relax }{subfigure.5.4.4}{}}
\@writefile{lof}{\contentsline {figure}{\numberline {5.4}{\ignorespaces Distribuci\IeC {\'o}n de los errores en los cuatro posibles escenarios.\relax }}{52}{figure.caption.25}}
\@writefile{lof}{\contentsline {subfigure}{\numberline{(a)}{\ignorespaces {Bien identificados aceptados}}}{52}{figure.caption.25}}
\@writefile{lof}{\contentsline {subfigure}{\numberline{(b)}{\ignorespaces {Bien identificados rechazados}}}{52}{figure.caption.25}}
\@writefile{lof}{\contentsline {subfigure}{\numberline{(c)}{\ignorespaces {Mal identificados aceptados}}}{52}{figure.caption.25}}
\@writefile{lof}{\contentsline {subfigure}{\numberline{(d)}{\ignorespaces {Mal identificados rechazados}}}{52}{figure.caption.25}}
\newlabel{fig:pesos}{{5.4}{52}{Distribución de los errores en los cuatro posibles escenarios.\relax \relax }{figure.caption.25}{}}
\@writefile{toc}{\contentsline {subsection}{\numberline {5.2.2}Comportamiento a distintos $SNR$}{52}{subsection.5.2.2}}
\newlabel{eq:ymenosy}{{5.1}{53}{Comportamiento a distintos $SNR$\relax }{equation.5.2.1}{}}
\newlabel{fig:error_acum_bien_aceptado}{{5.5(a)}{54}{Subfigure 5 5.5(a)\relax }{subfigure.5.5.1}{}}
\newlabel{sub@fig:error_acum_bien_aceptado}{{(a)}{54}{Subfigure 5 5.5(a)\relax }{subfigure.5.5.1}{}}
\newlabel{fig:error_acum_bien_rechazado}{{5.5(b)}{54}{Subfigure 5 5.5(b)\relax }{subfigure.5.5.2}{}}
\newlabel{sub@fig:error_acum_bien_rechazado}{{(b)}{54}{Subfigure 5 5.5(b)\relax }{subfigure.5.5.2}{}}
\newlabel{fig:error_acum_mal_aceptado}{{5.5(c)}{54}{Subfigure 5 5.5(c)\relax }{subfigure.5.5.3}{}}
\newlabel{sub@fig:error_acum_mal_aceptado}{{(c)}{54}{Subfigure 5 5.5(c)\relax }{subfigure.5.5.3}{}}
\newlabel{fig:error_acum_mal_rechazado}{{5.5(d)}{54}{Subfigure 5 5.5(d)\relax }{subfigure.5.5.4}{}}
\newlabel{sub@fig:error_acum_mal_rechazado}{{(d)}{54}{Subfigure 5 5.5(d)\relax }{subfigure.5.5.4}{}}
\@writefile{lof}{\contentsline {figure}{\numberline {5.5}{\ignorespaces Comparaci\IeC {\'o}n entre el error acumulado de detecci\IeC {\'o}n m\IeC {\'a}s identificaci\IeC {\'o}n y el desv\IeC {\'\i }o del ruido para los cuatro posibles escenarios.\relax }}{54}{figure.caption.26}}
\@writefile{lof}{\contentsline {subfigure}{\numberline{(a)}{\ignorespaces {Bien identificados aceptados}}}{54}{figure.caption.26}}
\@writefile{lof}{\contentsline {subfigure}{\numberline{(b)}{\ignorespaces {Bien identificados rechazados}}}{54}{figure.caption.26}}
\@writefile{lof}{\contentsline {subfigure}{\numberline{(c)}{\ignorespaces {Mal identificados aceptados}}}{54}{figure.caption.26}}
\@writefile{lof}{\contentsline {subfigure}{\numberline{(d)}{\ignorespaces {Mal identificados rechazados}}}{54}{figure.caption.26}}
\newlabel{fig:error_acum}{{5.5}{54}{Comparación entre el error acumulado de detección más identificación y el desvío del ruido para los cuatro posibles escenarios.\relax \relax }{figure.caption.26}{}}
\@writefile{lof}{\contentsline {figure}{\numberline {5.6}{\ignorespaces Variaci\IeC {\'o}n de los errores tipo I y II al cambiar el largo del bloque. $SNR=20dB$\relax }}{55}{figure.caption.27}}
\newlabel{fig:cant_muestras}{{5.6}{55}{Variación de los errores tipo I y II al cambiar el largo del bloque. $SNR=20dB$\relax \relax }{figure.caption.27}{}}
\@writefile{toc}{\contentsline {subsection}{\numberline {5.2.3}Comportamiento tomando distinto largo de bloques}{55}{subsection.5.2.3}}
\@writefile{lot}{\contentsline {table}{\numberline {5.1}{\ignorespaces Comparaci\IeC {\'o}n del desempe\IeC {\~n}o usando diferentes cantidades de muestras.\relax }}{56}{table.5.1}}
\newlabel{tab:errores_cant_muestras}{{5.1}{56}{Comparación del desempeño usando diferentes cantidades de muestras.\relax \relax }{table.5.1}{}}
\newlabel{fig:error_acum_bien_aceptado_300}{{5.7(a)}{57}{Subfigure 5 5.7(a)\relax }{subfigure.5.7.1}{}}
\newlabel{sub@fig:error_acum_bien_aceptado_300}{{(a)}{57}{Subfigure 5 5.7(a)\relax }{subfigure.5.7.1}{}}
\newlabel{fig:error_acum_bien_rechazado_300}{{5.7(b)}{57}{Subfigure 5 5.7(b)\relax }{subfigure.5.7.2}{}}
\newlabel{sub@fig:error_acum_bien_rechazado_300}{{(b)}{57}{Subfigure 5 5.7(b)\relax }{subfigure.5.7.2}{}}
\newlabel{fig:error_acum_mal_aceptado_300}{{5.7(c)}{57}{Subfigure 5 5.7(c)\relax }{subfigure.5.7.3}{}}
\newlabel{sub@fig:error_acum_mal_aceptado_300}{{(c)}{57}{Subfigure 5 5.7(c)\relax }{subfigure.5.7.3}{}}
\newlabel{fig:error_acum_mal_rechazado_300}{{5.7(d)}{57}{Subfigure 5 5.7(d)\relax }{subfigure.5.7.4}{}}
\newlabel{sub@fig:error_acum_mal_rechazado_300}{{(d)}{57}{Subfigure 5 5.7(d)\relax }{subfigure.5.7.4}{}}
\@writefile{lof}{\contentsline {figure}{\numberline {5.7}{\ignorespaces Comparaci\IeC {\'o}n entre el error acumulado para las para los cuatro posibles escenarios usando 300 muestras.\relax }}{57}{figure.caption.28}}
\@writefile{lof}{\contentsline {subfigure}{\numberline{(a)}{\ignorespaces {Bien identificados aceptados}}}{57}{figure.caption.28}}
\@writefile{lof}{\contentsline {subfigure}{\numberline{(b)}{\ignorespaces {Bien identificados rechazados}}}{57}{figure.caption.28}}
\@writefile{lof}{\contentsline {subfigure}{\numberline{(c)}{\ignorespaces {Mal identificados aceptados}}}{57}{figure.caption.28}}
\@writefile{lof}{\contentsline {subfigure}{\numberline{(d)}{\ignorespaces {Mal identificados rechazados}}}{57}{figure.caption.28}}
\newlabel{fig:error_acum_300}{{5.7}{57}{Comparación entre el error acumulado para las para los cuatro posibles escenarios usando 300 muestras.\relax \relax }{figure.caption.28}{}}
\@setckpt{resultados}{
\setcounter{page}{58}
\setcounter{equation}{1}
\setcounter{enumi}{6}
\setcounter{enumii}{0}
\setcounter{enumiii}{0}
\setcounter{enumiv}{0}
\setcounter{footnote}{1}
\setcounter{mpfootnote}{0}
\setcounter{part}{0}
\setcounter{chapter}{5}
\setcounter{section}{2}
\setcounter{subsection}{3}
\setcounter{subsubsection}{0}
\setcounter{paragraph}{0}
\setcounter{subparagraph}{0}
\setcounter{figure}{7}
\setcounter{table}{1}
\setcounter{subfigure}{0}
\setcounter{lofdepth}{1}
\setcounter{subtable}{0}
\setcounter{lotdepth}{1}
\setcounter{parentequation}{0}
\setcounter{ContinuedFloat}{0}
\setcounter{Item}{11}
\setcounter{Hfootnote}{11}
\setcounter{section@level}{2}
}
