\relax 
\catcode`"\active
\catcode`<\active
\catcode`>\active
\@nameuse{es@quoting}
\ifx\hyper@anchor\@undefined
\global \let \oldcontentsline\contentsline
\gdef \contentsline#1#2#3#4{\oldcontentsline{#1}{#2}{#3}}
\global \let \oldnewlabel\newlabel
\gdef \newlabel#1#2{\newlabelxx{#1}#2}
\gdef \newlabelxx#1#2#3#4#5#6{\oldnewlabel{#1}{{#2}{#3}}}
\AtEndDocument{\let \contentsline\oldcontentsline
\let \newlabel\oldnewlabel}
\else
\global \let \hyper@last\relax 
\fi

\@input{caratula.aux}
\select@language{spanish}
\@writefile{toc}{\select@language{spanish}}
\@writefile{lof}{\select@language{spanish}}
\@writefile{lot}{\select@language{spanish}}
\@input{introduccion.aux}
\@input{estimacion_ciega.aux}
\@input{validacion.aux}
\@input{kolmogorov.aux}
\@input{resultados.aux}
\@input{conclusiones.aux}
\citation{nutshell}
\@writefile{toc}{\contentsline {chapter}{Ap\IeC {\'e}ndices}{61}{section*.30}}
\@writefile{toc}{\contentsline {chapter}{\numberline {A}Bondad de ajuste y prueba de hip\IeC {\'o}tesis}{61}{appendix.A}}
\@writefile{lof}{\addvspace {10\p@ }}
\@writefile{lot}{\addvspace {10\p@ }}
\newlabel{cap:estadistica}{{A}{61}{Bondad de ajuste y prueba de hipótesis\relax }{appendix.A}{}}
\@writefile{toc}{\contentsline {section}{\numberline {A.1}Inferencia estad\IeC {\'\i }stica}{61}{section.A.1}}
\@writefile{toc}{\contentsline {section}{\numberline {A.2}Ensayo de hip\IeC {\'o}tesis}{62}{section.A.2}}
\newlabel{sec:ensayo_de_hipotesis}{{A.2}{62}{Ensayo de hipótesis\relax }{section.A.2}{}}
\citation{nutshell}
\citation{Janssen}
\@writefile{toc}{\contentsline {subsection}{\numberline {A.2.1}Nivel de probabilidad, o \textit  {valor-p}}{65}{subsection.A.2.1}}
\newlabel{sec:valor_p}{{A.2.1}{65}{Nivel de probabilidad, o \textit {valor-p}\relax }{subsection.A.2.1}{}}
\@writefile{toc}{\contentsline {subsection}{\numberline {A.2.2}Potencia de un ensayo}{67}{subsection.A.2.2}}
\newlabel{sec:potencia}{{A.2.2}{67}{Potencia de un ensayo\relax }{subsection.A.2.2}{}}
\@writefile{lof}{\contentsline {figure}{\numberline {A.1}{\ignorespaces Diagrama de potencia para dos poblaciones distribuidas normalmente.\relax }}{68}{figure.caption.31}}
\newlabel{fig:potencia}{{A.1}{68}{Diagrama de potencia para dos poblaciones distribuidas normalmente.\relax \relax }{figure.caption.31}{}}
\citation{calculadora_web}
\@writefile{toc}{\contentsline {chapter}{\numberline {B}Introducci\IeC {\'o}n a los estimadores de cuadrados m\IeC {\'\i }nimos}{71}{appendix.B}}
\@writefile{lof}{\addvspace {10\p@ }}
\@writefile{lot}{\addvspace {10\p@ }}
\newlabel{sec:cuadrados}{{B}{71}{Introducción a los estimadores de cuadrados mínimos\relax }{appendix.B}{}}
\@writefile{toc}{\contentsline {section}{\numberline {B.1}Estimadores l.s. - Propiedades b\IeC {\'a}sicas}{72}{section.B.1}}
\@writefile{toc}{\contentsline {subsection}{\numberline {B.1.1}Estimadores l.s. como esperanzas condicionales}{72}{subsection.B.1.1}}
\newlabel{eq:mse}{{B.1}{72}{Estimadores l.s. como esperanzas condicionales\relax }{equation.B.1.1}{}}
\@writefile{toc}{\contentsline {subsection}{\numberline {B.1.2}Estimaci\IeC {\'o}n dada varias variables aleatorias}{73}{subsection.B.1.2}}
\citation{magnus}
\@writefile{toc}{\contentsline {chapter}{\numberline {C}Desarrollo del estimador EM}{75}{appendix.C}}
\@writefile{lof}{\addvspace {10\p@ }}
\@writefile{lot}{\addvspace {10\p@ }}
\newlabel{desarrollo_derivada}{{C}{75}{Desarrollo del estimador EM\relax }{appendix.C}{}}
\newlabel{cuad}{{C.1}{75}{Desarrollo del estimador EM\relax }{equation.C.0.1}{}}
\newlabel{deriv_a}{{C.2}{75}{Desarrollo del estimador EM\relax }{equation.C.0.2}{}}
\citation{magnus}
\citation{magnus}
\newlabel{deriv_b}{{C.3}{76}{Desarrollo del estimador EM\relax }{equation.C.0.3}{}}
\newlabel{matr}{{C.4}{76}{Desarrollo del estimador EM\relax }{equation.C.0.4}{}}
\newlabel{deriv_b2}{{C.5}{76}{Desarrollo del estimador EM\relax }{equation.C.0.5}{}}
\newlabel{deriv_kro}{{C.6}{76}{Desarrollo del estimador EM\relax }{equation.C.0.6}{}}
\newlabel{L1}{{C.7}{76}{Desarrollo del estimador EM\relax }{equation.C.0.7}{}}
\newlabel{L2}{{C.8}{77}{Desarrollo del estimador EM\relax }{equation.C.0.8}{}}
\newlabel{G1}{{C.9}{77}{Desarrollo del estimador EM\relax }{equation.C.0.9}{}}
\newlabel{G2}{{C.10}{77}{Desarrollo del estimador EM\relax }{equation.C.0.10}{}}
\newlabel{derivada}{{C.11}{77}{Desarrollo del estimador EM\relax }{equation.C.0.11}{}}
\citation{Maronna}
\@writefile{toc}{\contentsline {chapter}{\numberline {D}Estad\IeC {\'\i }stica robusta}{79}{appendix.D}}
\@writefile{lof}{\addvspace {10\p@ }}
\@writefile{lot}{\addvspace {10\p@ }}
\newlabel{sec:es_robusta}{{D}{79}{Estadística robusta\relax }{appendix.D}{}}
\@writefile{toc}{\contentsline {section}{\numberline {D.1}Punto de quiebre}{79}{section.D.1}}
\@writefile{toc}{\contentsline {section}{\numberline {D.2}Estimadores M}{80}{section.D.2}}
\@writefile{toc}{\contentsline {subsection}{\numberline {D.2.1}Motivaci\IeC {\'o}n}{80}{subsection.D.2.1}}
\@writefile{toc}{\contentsline {subsection}{\numberline {D.2.2}Definici\IeC {\'o}n}{81}{subsection.D.2.2}}
\@writefile{lof}{\contentsline {figure}{\numberline {D.1}{\ignorespaces Ejemplos de diferentes funciones $rho$.\relax }}{82}{figure.caption.32}}
\newlabel{fig:ej_rho}{{D.1}{82}{Ejemplos de diferentes funciones $rho$.\relax \relax }{figure.caption.32}{}}
\@writefile{toc}{\contentsline {subsection}{\numberline {D.2.3}C\IeC {\'a}lculo}{82}{subsection.D.2.3}}
\@writefile{toc}{\contentsline {subsection}{\numberline {D.2.4}Ejemplos}{83}{subsection.D.2.4}}
\bibstyle{aplain}
\bibdata{IEEEfull,tesis}
\bibcite{dempster}{1}
\bibcite{Bassi}{2}
\bibcite{nutshell}{3}
\bibcite{Burdin}{4}
\bibcite{cioffi}{5}
\bibcite{eaton}{6}
\bibcite{Garrett}{7}
\bibcite{Hindelang}{8}
\@writefile{toc}{\contentsline {chapter}{Bibliograf\IeC {\'\i }a}{85}{subsection.D.2.4}}
\bibcite{fang}{9}
\bibcite{Janssen}{10}
\bibcite{ksmulti}{11}
\bibcite{robusto}{12}
\bibcite{khamis}{13}
\bibcite{larssonblock}{14}
\bibcite{leon-garcia}{15}
\bibcite{LiandLiu}{16}
\bibcite{LiandLuxi}{17}
\bibcite{Pei}{18}
\bibcite{ljung}{19}
\bibcite{emciego}{20}
\bibcite{magnus}{21}
\bibcite{Maronna}{22}
\bibcite{libro_em}{23}
\bibcite{moon}{24}
\bibcite{calculadora_web}{25}
\bibcite{rosenblatt}{26}
\bibcite{handbook}{27}
\bibcite{stark}{28}
\bibcite{sthepens}{29}
\bibcite{tse}{30}
\bibcite{wozencraft}{31}
\bibcite{jordan}{32}
