\relax 
\citation{ljung}
\@writefile{toc}{\contentsline {chapter}{\numberline {3}Validaci\IeC {\'o}n de modelos}{27}{chapter.3}}
\@writefile{lof}{\addvspace {10\p@ }}
\@writefile{lot}{\addvspace {10\p@ }}
\newlabel{sec:validacion}{{3}{27}{Validación de modelos\relax }{chapter.3}{}}
\newlabel{item:preg1}{{1}{27}{Validación de modelos\relax }{Item.1}{}}
\newlabel{item:preg2}{{2}{27}{Validación de modelos\relax }{Item.2}{}}
\newlabel{item:preg3}{{3}{27}{Validación de modelos\relax }{Item.3}{}}
\@writefile{toc}{\contentsline {section}{\numberline {3.1}M\IeC {\'e}todos de validaci\IeC {\'o}n}{27}{section.3.1}}
\@writefile{toc}{\contentsline {subsection}{\numberline {3.1.1}An\IeC {\'a}lisis de residuos}{29}{subsection.3.1.1}}
\newlabel{sec:residuos}{{3.1.1}{29}{Análisis de residuos\relax }{subsection.3.1.1}{}}
\newlabel{eq:e_1}{{3.1}{29}{Análisis de residuos\relax }{equation.3.1.1}{}}
\newlabel{eq:e_2}{{3.2}{29}{Análisis de residuos\relax }{equation.3.1.2}{}}
\newlabel{eq:recibidos}{{3.3}{30}{Análisis de residuos\relax }{equation.3.1.3}{}}
\newlabel{eq:res_t}{{3.4}{30}{Análisis de residuos\relax }{equation.3.1.4}{}}
\newlabel{eq:auto_correlacion}{{3.5}{30}{Análisis de residuos\relax }{equation.3.1.5}{}}
\citation{ljung}
\newlabel{eq:res_normales}{{3.6}{31}{Análisis de residuos\relax }{equation.3.1.6}{}}
\newlabel{eq:res_chi}{{3.7}{31}{Análisis de residuos\relax }{equation.3.1.7}{}}
\newlabel{eq:res_con_datos}{{3.8}{31}{Análisis de residuos\relax }{equation.3.1.8}{}}
\@writefile{toc}{\contentsline {subsubsection}{Otros ensayos de normalidad}{31}{section*.14}}
\newlabel{fig:qqplot_normal}{{3.1(a)}{32}{Subfigure 3 3.1(a)\relax }{subfigure.3.1.1}{}}
\newlabel{sub@fig:qqplot_normal}{{(a)}{32}{Subfigure 3 3.1(a)\relax }{subfigure.3.1.1}{}}
\newlabel{fig:qqplot_gamma1}{{3.1(b)}{32}{Subfigure 3 3.1(b)\relax }{subfigure.3.1.2}{}}
\newlabel{sub@fig:qqplot_gamma1}{{(b)}{32}{Subfigure 3 3.1(b)\relax }{subfigure.3.1.2}{}}
\newlabel{fig:qqplot_gamma2}{{3.1(c)}{32}{Subfigure 3 3.1(c)\relax }{subfigure.3.1.3}{}}
\newlabel{sub@fig:qqplot_gamma2}{{(c)}{32}{Subfigure 3 3.1(c)\relax }{subfigure.3.1.3}{}}
\newlabel{fig:qqplot_uniforme}{{3.1(d)}{32}{Subfigure 3 3.1(d)\relax }{subfigure.3.1.4}{}}
\newlabel{sub@fig:qqplot_uniforme}{{(d)}{32}{Subfigure 3 3.1(d)\relax }{subfigure.3.1.4}{}}
\@writefile{lof}{\contentsline {figure}{\numberline {3.1}{\ignorespaces Ejemplos de QQPlot realiza a distintas muestras\relax }}{32}{figure.caption.15}}
\@writefile{lof}{\contentsline {subfigure}{\numberline{(a)}{\ignorespaces {Normal}}}{32}{figure.caption.15}}
\@writefile{lof}{\contentsline {subfigure}{\numberline{(b)}{\ignorespaces {Gamma(9,5)}}}{32}{figure.caption.15}}
\@writefile{lof}{\contentsline {subfigure}{\numberline{(c)}{\ignorespaces {Gamma(1,2)}}}{32}{figure.caption.15}}
\@writefile{lof}{\contentsline {subfigure}{\numberline{(d)}{\ignorespaces {Uniforme}}}{32}{figure.caption.15}}
\newlabel{fig:qqplot}{{3.1}{32}{Ejemplos de QQPlot realiza a distintas muestras\relax \relax }{figure.caption.15}{}}
\@writefile{toc}{\contentsline {section}{\numberline {3.2}Uso de los residuos en la validaci\IeC {\'o}n ciega}{32}{section.3.2}}
\@writefile{toc}{\contentsline {subsection}{\numberline {3.2.1}C\IeC {\'a}lculo de los residuos}{32}{subsection.3.2.1}}
\newlabel{sec:calc_res}{{3.2.1}{32}{Cálculo de los residuos\relax }{subsection.3.2.1}{}}
\newlabel{eq:res_ciegos}{{3.9}{33}{Cálculo de los residuos\relax }{equation.3.2.9}{}}
\@writefile{toc}{\contentsline {subsection}{\numberline {3.2.2}An\IeC {\'a}lisis de la varianza}{33}{subsection.3.2.2}}
\@writefile{toc}{\contentsline {subsubsection}{Estimaci\IeC {\'o}n de la traza de la matriz de covarianza del ruido}{33}{section*.16}}
\newlabel{traza1}{{3.10}{33}{Estimación de la traza de la matriz de covarianza del ruido\relax }{equation.3.2.10}{}}
\newlabel{traza2}{{3.11}{33}{Estimación de la traza de la matriz de covarianza del ruido\relax }{equation.3.2.11}{}}
\newlabel{e_chi}{{3.12}{33}{Estimación de la traza de la matriz de covarianza del ruido\relax }{equation.3.2.12}{}}
\newlabel{var_chi}{{3.13}{33}{Estimación de la traza de la matriz de covarianza del ruido\relax }{equation.3.2.12}{}}
\@writefile{lof}{\contentsline {figure}{\numberline {3.2}{\ignorespaces Convergencia de la estimaci\IeC {\'o}n de la traza de la covarianza.\relax }}{34}{figure.caption.18}}
\newlabel{fig:traza}{{3.2}{34}{Convergencia de la estimación de la traza de la covarianza.\relax \relax }{figure.caption.18}{}}
\newlabel{e_tr}{{3.14}{34}{Estimación de la traza de la matriz de covarianza del ruido\relax }{equation.3.2.14}{}}
\newlabel{var_tr}{{3.15}{34}{Estimación de la traza de la matriz de covarianza del ruido\relax }{equation.3.2.14}{}}
\@writefile{toc}{\contentsline {subsubsection}{M\IeC {\'e}todo de validaci\IeC {\'o}n}{34}{section*.17}}
\newlabel{sec:validacion_por_traza}{{3.2.2}{34}{Método de validación\relax }{section*.17}{}}
\citation{sthepens}
\@writefile{toc}{\contentsline {subsection}{\numberline {3.2.3}Ensayo de bondad de ajuste}{35}{subsection.3.2.3}}
\newlabel{sec:ensayo_bondad}{{3.2.3}{35}{Ensayo de bondad de ajuste\relax }{subsection.3.2.3}{}}
\@setckpt{validacion}{
\setcounter{page}{37}
\setcounter{equation}{15}
\setcounter{enumi}{3}
\setcounter{enumii}{0}
\setcounter{enumiii}{0}
\setcounter{enumiv}{0}
\setcounter{footnote}{1}
\setcounter{mpfootnote}{0}
\setcounter{part}{0}
\setcounter{chapter}{3}
\setcounter{section}{2}
\setcounter{subsection}{3}
\setcounter{subsubsection}{0}
\setcounter{paragraph}{0}
\setcounter{subparagraph}{0}
\setcounter{figure}{2}
\setcounter{table}{0}
\setcounter{subfigure}{0}
\setcounter{lofdepth}{1}
\setcounter{subtable}{0}
\setcounter{lotdepth}{1}
\setcounter{parentequation}{0}
\setcounter{ContinuedFloat}{0}
\setcounter{Item}{3}
\setcounter{Hfootnote}{8}
\setcounter{section@level}{2}
}
