<?xml version="1.0" encoding="UTF-8" standalone="no"?>
<!-- Created with Inkscape (http://www.inkscape.org/) -->

<svg
   xmlns:dc="http://purl.org/dc/elements/1.1/"
   xmlns:cc="http://creativecommons.org/ns#"
   xmlns:rdf="http://www.w3.org/1999/02/22-rdf-syntax-ns#"
   xmlns:svg="http://www.w3.org/2000/svg"
   xmlns="http://www.w3.org/2000/svg"
   xmlns:sodipodi="http://sodipodi.sourceforge.net/DTD/sodipodi-0.dtd"
   xmlns:inkscape="http://www.inkscape.org/namespaces/inkscape"
   width="502.04059"
   height="76.381966"
   id="svg2557"
   sodipodi:version="0.32"
   inkscape:version="0.47 r22583"
   version="1.0"
   sodipodi:docname="receptor_clasico.svg"
   inkscape:output_extension="org.inkscape.output.svg.inkscape">
  <defs
     id="defs2559">
    <marker
       inkscape:stockid="Arrow1Mstart"
       orient="auto"
       refY="0"
       refX="0"
       id="Arrow1Mstart"
       style="overflow:visible">
      <path
         id="path3388"
         d="M 0,0 L 5,-5 L -12.5,0 L 5,5 L 0,0 z"
         style="fill-rule:evenodd;stroke:#000000;stroke-width:1pt;marker-start:none"
         transform="matrix(0.4,0,0,0.4,4,0)" />
    </marker>
    <marker
       inkscape:stockid="Arrow1Mend"
       orient="auto"
       refY="0"
       refX="0"
       id="Arrow1Mend"
       style="overflow:visible">
      <path
         id="path3391"
         d="M 0,0 L 5,-5 L -12.5,0 L 5,5 L 0,0 z"
         style="fill-rule:evenodd;stroke:#000000;stroke-width:1pt;marker-start:none"
         transform="matrix(-0.4,0,0,-0.4,-4,0)" />
    </marker>
    <inkscape:perspective
       sodipodi:type="inkscape:persp3d"
       inkscape:vp_x="0 : 526.18109 : 1"
       inkscape:vp_y="0 : 1000 : 0"
       inkscape:vp_z="744.09448 : 526.18109 : 1"
       inkscape:persp3d-origin="372.04724 : 350.78739 : 1"
       id="perspective2565" />
  </defs>
  <sodipodi:namedview
     id="base"
     pagecolor="#ffffff"
     bordercolor="#666666"
     borderopacity="1.0"
     gridtolerance="10000"
     guidetolerance="10"
     objecttolerance="10"
     inkscape:pageopacity="0.0"
     inkscape:pageshadow="2"
     inkscape:zoom="1.979899"
     inkscape:cx="257.00966"
     inkscape:cy="61.406732"
     inkscape:document-units="px"
     inkscape:current-layer="layer1"
     showgrid="false"
     showguides="true"
     inkscape:guide-bbox="true"
     inkscape:window-width="1276"
     inkscape:window-height="771"
     inkscape:window-x="0"
     inkscape:window-y="24"
     inkscape:window-maximized="0">
    <sodipodi:guide
       orientation="0,1"
       position="69.285714,1035.7143"
       id="guide2569" />
    <sodipodi:guide
       orientation="0,1"
       position="272.14286,960.71429"
       id="guide2571" />
  </sodipodi:namedview>
  <metadata
     id="metadata2562">
    <rdf:RDF>
      <cc:Work
         rdf:about="">
        <dc:format>image/svg+xml</dc:format>
        <dc:type
           rdf:resource="http://purl.org/dc/dcmitype/StillImage" />
      </cc:Work>
    </rdf:RDF>
  </metadata>
  <g
     inkscape:label="Layer 1"
     inkscape:groupmode="layer"
     id="layer1"
     transform="translate(-111.19632,-15.647886)">
    <g
       id="g4801"
       transform="translate(4,0)">
      <path
         id="path4157"
         d="M 142.80358,24.505038 L 142.80358,45.933608 L 154.94643,45.933608"
         style="fill:none;fill-rule:evenodd;stroke:#000000;stroke-width:1px;stroke-linecap:butt;stroke-linejoin:miter;marker-start:url(#Arrow1Mstart);stroke-opacity:1" />
      <path
         id="path4682"
         d="M 142.80358,52.451468 L 142.80358,73.880038 L 154.94643,73.880038"
         style="fill:none;fill-rule:evenodd;stroke:#000000;stroke-width:1px;stroke-linecap:butt;stroke-linejoin:miter;marker-start:url(#Arrow1Mstart);stroke-opacity:1" />
      <g
         transform="translate(58,0)"
         id="g4709">
        <g
           id="g4696"
           transform="translate(-84.285714,-204.64287)">
          <path
             sodipodi:open="true"
             sodipodi:end="1.5374753"
             sodipodi:start="0"
             d="m 147.14286,221.29076 c 0,6.35623 -5.04037,11.56741 -11.39307,11.77917"
             sodipodi:ry="11.785714"
             sodipodi:rx="11.785714"
             sodipodi:cy="221.29076"
             sodipodi:cx="135.35715"
             id="path4688"
             style="opacity:1;fill:#ffffff;fill-opacity:1;fill-rule:evenodd;stroke:#000000;stroke-width:2;stroke-linecap:butt;stroke-linejoin:miter;marker:none;marker-start:none;marker-mid:none;marker-end:none;stroke-miterlimit:4;stroke-dasharray:none;stroke-dashoffset:0;stroke-opacity:1;visibility:visible;display:inline;overflow:visible;enable-background:accumulate"
             sodipodi:type="arc" />
          <path
             transform="translate(-18.928571,-10)"
             sodipodi:open="true"
             sodipodi:end="1.5374753"
             sodipodi:start="0"
             d="m 172.85714,233.07646 c 0,8.8602 -7.33146,16.12428 -16.57175,16.41945"
             sodipodi:ry="16.428572"
             sodipodi:rx="17.142857"
             sodipodi:cy="233.07646"
             sodipodi:cx="155.71428"
             id="path4692"
             style="opacity:1;fill:#ffffff;fill-opacity:1;fill-rule:evenodd;stroke:#000000;stroke-width:2;stroke-linecap:butt;stroke-linejoin:miter;marker:none;marker-start:none;marker-mid:none;marker-end:none;stroke-miterlimit:4;stroke-dasharray:none;stroke-dashoffset:0;stroke-opacity:1;visibility:visible;display:inline;overflow:visible;enable-background:accumulate"
             sodipodi:type="arc" />
          <path
             transform="translate(-23.928571,-5.7142857)"
             sodipodi:open="true"
             sodipodi:end="1.5374753"
             sodipodi:start="0"
             d="m 184.28572,228.79076 c 0,12.71246 -9.6989,23.13483 -21.92304,23.55834"
             sodipodi:ry="23.571428"
             sodipodi:rx="22.678572"
             sodipodi:cy="228.79076"
             sodipodi:cx="161.60715"
             id="path4694"
             style="opacity:1;fill:#ffffff;fill-opacity:1;fill-rule:evenodd;stroke:#000000;stroke-width:2;stroke-linecap:butt;stroke-linejoin:miter;marker:none;marker-start:none;marker-mid:none;marker-end:none;stroke-miterlimit:4;stroke-dasharray:none;stroke-dashoffset:0;stroke-opacity:1;visibility:visible;display:inline;overflow:visible;enable-background:accumulate"
             sodipodi:type="arc" />
        </g>
      </g>
      <g
         transform="translate(56.732247,34.82798)"
         id="g4715">
        <g
           id="g4717"
           transform="translate(-84.285714,-204.64287)">
          <path
             sodipodi:open="true"
             sodipodi:end="1.5374753"
             sodipodi:start="0"
             d="m 147.14286,221.29076 c 0,6.35623 -5.04037,11.56741 -11.39307,11.77917"
             sodipodi:ry="11.785714"
             sodipodi:rx="11.785714"
             sodipodi:cy="221.29076"
             sodipodi:cx="135.35715"
             id="path4719"
             style="opacity:1;fill:#ffffff;fill-opacity:1;fill-rule:evenodd;stroke:#000000;stroke-width:2;stroke-linecap:butt;stroke-linejoin:miter;marker:none;marker-start:none;marker-mid:none;marker-end:none;stroke-miterlimit:4;stroke-dasharray:none;stroke-dashoffset:0;stroke-opacity:1;visibility:visible;display:inline;overflow:visible;enable-background:accumulate"
             sodipodi:type="arc" />
          <path
             transform="translate(-18.928571,-10)"
             sodipodi:open="true"
             sodipodi:end="1.5374753"
             sodipodi:start="0"
             d="m 172.85714,233.07646 c 0,8.8602 -7.33146,16.12428 -16.57175,16.41945"
             sodipodi:ry="16.428572"
             sodipodi:rx="17.142857"
             sodipodi:cy="233.07646"
             sodipodi:cx="155.71428"
             id="path4721"
             style="opacity:1;fill:#ffffff;fill-opacity:1;fill-rule:evenodd;stroke:#000000;stroke-width:2;stroke-linecap:butt;stroke-linejoin:miter;marker:none;marker-start:none;marker-mid:none;marker-end:none;stroke-miterlimit:4;stroke-dasharray:none;stroke-dashoffset:0;stroke-opacity:1;visibility:visible;display:inline;overflow:visible;enable-background:accumulate"
             sodipodi:type="arc" />
          <path
             transform="translate(-23.928571,-5.7142857)"
             sodipodi:open="true"
             sodipodi:end="1.5374753"
             sodipodi:start="0"
             d="m 184.28572,228.79076 c 0,12.71246 -9.6989,23.13483 -21.92304,23.55834"
             sodipodi:ry="23.571428"
             sodipodi:rx="22.678572"
             sodipodi:cy="228.79076"
             sodipodi:cx="161.60715"
             id="path4723"
             style="opacity:1;fill:#ffffff;fill-opacity:1;fill-rule:evenodd;stroke:#000000;stroke-width:2;stroke-linecap:butt;stroke-linejoin:miter;marker:none;marker-start:none;marker-mid:none;marker-end:none;stroke-miterlimit:4;stroke-dasharray:none;stroke-dashoffset:0;stroke-opacity:1;visibility:visible;display:inline;overflow:visible;enable-background:accumulate"
             sodipodi:type="arc" />
        </g>
      </g>
      <g
         transform="translate(20,0)"
         id="g4763">
        <rect
           style="opacity:1;fill:#c9c9c9;fill-opacity:1;fill-rule:evenodd;stroke:none;stroke-width:1.37614417;stroke-linecap:butt;stroke-linejoin:miter;marker:none;marker-start:none;marker-mid:none;marker-end:none;stroke-miterlimit:4;stroke-dasharray:none;stroke-dashoffset:0;stroke-opacity:1;visibility:visible;display:inline;overflow:visible;enable-background:accumulate"
           id="rect2573"
           width="67.052429"
           height="75.510834"
           x="134.97379"
           y="16.335955" />
        <text
           xml:space="preserve"
           style="font-size:14px;font-style:normal;font-variant:normal;font-weight:normal;font-stretch:normal;text-align:center;text-anchor:middle;fill:#000000;fill-opacity:1;stroke:none;font-family:FreeSans;-inkscape-font-specification:FreeSans"
           x="168.70749"
           y="49.002373"
           id="text4731"><tspan
             sodipodi:role="line"
             id="tspan4733"
             x="168.70749"
             y="49.002373">Frente</tspan><tspan
             sodipodi:role="line"
             x="168.70749"
             y="66.502373"
             id="tspan4735">Analógico</tspan></text>
      </g>
    </g>
    <g
       id="g4820">
      <rect
         y="16.582247"
         x="251.62447"
         height="75.447601"
         width="73.417763"
         id="rect2575"
         style="fill:#b5eeee;fill-opacity:1;fill-rule:evenodd;stroke:none;stroke-width:1.43937945;stroke-linecap:butt;stroke-linejoin:miter;marker:none;marker-start:none;marker-mid:none;marker-end:none;stroke-miterlimit:4;stroke-dasharray:none;stroke-dashoffset:0;stroke-opacity:1;visibility:visible;display:inline;overflow:visible;enable-background:accumulate" />
      <text
         id="text4737"
         y="50.498047"
         x="287.79425"
         style="font-size:14px;font-style:normal;font-variant:normal;font-weight:normal;font-stretch:normal;text-align:center;text-anchor:middle;fill:#000000;fill-opacity:1;stroke:none;stroke-width:1px;stroke-linecap:butt;stroke-linejoin:miter;stroke-opacity:1;font-family:FreeSans;-inkscape-font-specification:FreeSans"
         xml:space="preserve"><tspan
           y="50.498047"
           x="287.79425"
           id="tspan4739"
           sodipodi:role="line">Estimador</tspan><tspan
           id="tspan4741"
           y="67.998047"
           x="287.79425"
           sodipodi:role="line">de canal</tspan></text>
    </g>
    <g
       id="g4826">
      <rect
         y="16.615795"
         x="352.27707"
         height="75.380508"
         width="80.493523"
         id="rect2599"
         style="fill:#fd7a84;fill-opacity:1;fill-rule:evenodd;stroke:none;stroke-width:1.50647533;stroke-linecap:butt;stroke-linejoin:miter;marker:none;marker-start:none;marker-mid:none;marker-end:none;stroke-miterlimit:4;stroke-dasharray:none;stroke-dashoffset:0;stroke-opacity:1;visibility:visible;display:inline;overflow:visible;enable-background:accumulate" />
      <text
         id="text4743"
         y="59.248051"
         x="391.98471"
         style="font-size:14px;font-style:normal;font-variant:normal;font-weight:normal;font-stretch:normal;text-align:center;text-anchor:middle;fill:#000000;fill-opacity:1;stroke:none;stroke-width:1px;stroke-linecap:butt;stroke-linejoin:miter;stroke-opacity:1;font-family:FreeSans;-inkscape-font-specification:FreeSans"
         xml:space="preserve"><tspan
           y="59.248051"
           x="391.98471"
           id="tspan4745"
           sodipodi:role="line">Ecualizador</tspan></text>
    </g>
    <g
       id="g4831">
      <rect
         y="16.647882"
         x="456.92819"
         height="75.31633"
         width="87.572205"
         id="rect2601"
         style="fill:#7afd87;fill-opacity:1;fill-rule:evenodd;stroke:none;stroke-width:1.57065117;stroke-linecap:butt;stroke-linejoin:miter;marker:none;marker-start:none;marker-mid:none;marker-end:none;stroke-miterlimit:4;stroke-dasharray:none;stroke-dashoffset:0;stroke-opacity:1;visibility:visible;display:inline;overflow:visible;enable-background:accumulate" />
      <text
         id="text4747"
         y="50.498047"
         x="500.6232"
         style="font-size:14px;font-style:normal;font-variant:normal;font-weight:normal;font-stretch:normal;text-align:center;text-anchor:middle;fill:#000000;fill-opacity:1;stroke:none;font-family:FreeSans;-inkscape-font-specification:FreeSans"
         xml:space="preserve"><tspan
           y="50.498047"
           x="500.6232"
           id="tspan4749"
           sodipodi:role="line">Detector /</tspan><tspan
           id="tspan4751"
           y="67.998047"
           x="500.6232"
           sodipodi:role="line">Decodificador</tspan></text>
    </g>
    <text
       xml:space="preserve"
       style="font-size:14px;font-style:normal;font-variant:normal;font-weight:normal;font-stretch:normal;text-align:center;text-anchor:middle;fill:#000000;fill-opacity:1;stroke:none;stroke-width:1px;stroke-linecap:butt;stroke-linejoin:miter;stroke-opacity:1;font-family:FreeSans;-inkscape-font-specification:FreeSans"
       x="579"
       y="58.076466"
       id="text4753"><tspan
         sodipodi:role="line"
         id="tspan4755"
         x="579"
         y="58.076466">01101101</tspan></text>
    <path
       style="fill:none;fill-rule:evenodd;stroke:#000000;stroke-width:1px;stroke-linecap:butt;stroke-linejoin:miter;marker-end:url(#Arrow1Mend);stroke-opacity:1"
       d="M 226.02621,54.015277 L 251.62447,54.134737"
       id="path4837"
       inkscape:connector-type="polyline"
       inkscape:connection-start="#g4801"
       inkscape:connection-end="#g4820" />
    <path
       style="fill:none;fill-rule:evenodd;stroke:#000000;stroke-width:1px;stroke-linecap:butt;stroke-linejoin:miter;marker-end:url(#Arrow1Mend);stroke-opacity:1"
       d="M 325.04223,54.306048 L 352.27707,54.306049"
       id="path4841"
       inkscape:connector-type="polyline"
       inkscape:connection-start="#g4820"
       inkscape:connection-end="#g4826" />
    <path
       style="fill:none;fill-rule:evenodd;stroke:#000000;stroke-width:1px;stroke-linecap:butt;stroke-linejoin:miter;marker-end:url(#Arrow1Mend);stroke-opacity:1"
       d="M 432.77059,54.306049 L 456.92819,54.306048"
       id="path4843"
       inkscape:connector-type="polyline"
       inkscape:connection-start="#g4826"
       inkscape:connection-end="#g4831" />
  </g>
</svg>
