%!PS-Adobe-2.0 EPSF-2.0
%%Title: ValorKS_error.eps
%%Creator: gnuplot 4.4 patchlevel 3
%%CreationDate: Tue Mar 20 17:04:05 2012
%%DocumentFonts: (atend)
%%BoundingBox: 50 50 625 481
%%EndComments
%%BeginProlog
/gnudict 256 dict def
gnudict begin
%
% The following true/false flags may be edited by hand if desired.
% The unit line width and grayscale image gamma correction may also be changed.
%
/Color false def
/Blacktext false def
/Solid false def
/Dashlength 1 def
/Landscape false def
/Level1 false def
/Rounded false def
/ClipToBoundingBox false def
/TransparentPatterns false def
/gnulinewidth 5.000 def
/userlinewidth gnulinewidth def
/Gamma 1.0 def
%
/vshift -46 def
/dl1 {
  10.0 Dashlength mul mul
  Rounded { currentlinewidth 0.75 mul sub dup 0 le { pop 0.01 } if } if
} def
/dl2 {
  10.0 Dashlength mul mul
  Rounded { currentlinewidth 0.75 mul add } if
} def
/hpt_ 31.5 def
/vpt_ 31.5 def
/hpt hpt_ def
/vpt vpt_ def
Level1 {} {
/SDict 10 dict def
systemdict /pdfmark known not {
  userdict /pdfmark systemdict /cleartomark get put
} if
SDict begin [
  /Title (ValorKS_error.eps)
  /Subject (gnuplot plot)
  /Creator (gnuplot 4.4 patchlevel 3)
  /Author (tulku)
%  /Producer (gnuplot)
%  /Keywords ()
  /CreationDate (Tue Mar 20 17:04:05 2012)
  /DOCINFO pdfmark
end
} ifelse
/doclip {
  ClipToBoundingBox {
    newpath 50 50 moveto 625 50 lineto 625 481 lineto 50 481 lineto closepath
    clip
  } if
} def
%
% Gnuplot Prolog Version 4.4 (August 2010)
%
%/SuppressPDFMark true def
%
/M {moveto} bind def
/L {lineto} bind def
/R {rmoveto} bind def
/V {rlineto} bind def
/N {newpath moveto} bind def
/Z {closepath} bind def
/C {setrgbcolor} bind def
/f {rlineto fill} bind def
/g {setgray} bind def
/Gshow {show} def   % May be redefined later in the file to support UTF-8
/vpt2 vpt 2 mul def
/hpt2 hpt 2 mul def
/Lshow {currentpoint stroke M 0 vshift R 
	Blacktext {gsave 0 setgray show grestore} {show} ifelse} def
/Rshow {currentpoint stroke M dup stringwidth pop neg vshift R
	Blacktext {gsave 0 setgray show grestore} {show} ifelse} def
/Cshow {currentpoint stroke M dup stringwidth pop -2 div vshift R 
	Blacktext {gsave 0 setgray show grestore} {show} ifelse} def
/UP {dup vpt_ mul /vpt exch def hpt_ mul /hpt exch def
  /hpt2 hpt 2 mul def /vpt2 vpt 2 mul def} def
/DL {Color {setrgbcolor Solid {pop []} if 0 setdash}
 {pop pop pop 0 setgray Solid {pop []} if 0 setdash} ifelse} def
/BL {stroke userlinewidth 2 mul setlinewidth
	Rounded {1 setlinejoin 1 setlinecap} if} def
/AL {stroke userlinewidth 2 div setlinewidth
	Rounded {1 setlinejoin 1 setlinecap} if} def
/UL {dup gnulinewidth mul /userlinewidth exch def
	dup 1 lt {pop 1} if 10 mul /udl exch def} def
/PL {stroke userlinewidth setlinewidth
	Rounded {1 setlinejoin 1 setlinecap} if} def
3.8 setmiterlimit
% Default Line colors
/LCw {1 1 1} def
/LCb {0 0 0} def
/LCa {0 0 0} def
/LC0 {1 0 0} def
/LC1 {0 1 0} def
/LC2 {0 0 1} def
/LC3 {1 0 1} def
/LC4 {0 1 1} def
/LC5 {1 1 0} def
/LC6 {0 0 0} def
/LC7 {1 0.3 0} def
/LC8 {0.5 0.5 0.5} def
% Default Line Types
/LTw {PL [] 1 setgray} def
/LTb {BL [] LCb DL} def
/LTa {AL [1 udl mul 2 udl mul] 0 setdash LCa setrgbcolor} def
/LT0 {PL [] LC0 DL} def
/LT1 {PL [4 dl1 2 dl2] LC1 DL} def
/LT2 {PL [2 dl1 3 dl2] LC2 DL} def
/LT3 {PL [1 dl1 1.5 dl2] LC3 DL} def
/LT4 {PL [6 dl1 2 dl2 1 dl1 2 dl2] LC4 DL} def
/LT5 {PL [3 dl1 3 dl2 1 dl1 3 dl2] LC5 DL} def
/LT6 {PL [2 dl1 2 dl2 2 dl1 6 dl2] LC6 DL} def
/LT7 {PL [1 dl1 2 dl2 6 dl1 2 dl2 1 dl1 2 dl2] LC7 DL} def
/LT8 {PL [2 dl1 2 dl2 2 dl1 2 dl2 2 dl1 2 dl2 2 dl1 4 dl2] LC8 DL} def
/Pnt {stroke [] 0 setdash gsave 1 setlinecap M 0 0 V stroke grestore} def
/Dia {stroke [] 0 setdash 2 copy vpt add M
  hpt neg vpt neg V hpt vpt neg V
  hpt vpt V hpt neg vpt V closepath stroke
  Pnt} def
/Pls {stroke [] 0 setdash vpt sub M 0 vpt2 V
  currentpoint stroke M
  hpt neg vpt neg R hpt2 0 V stroke
 } def
/Box {stroke [] 0 setdash 2 copy exch hpt sub exch vpt add M
  0 vpt2 neg V hpt2 0 V 0 vpt2 V
  hpt2 neg 0 V closepath stroke
  Pnt} def
/Crs {stroke [] 0 setdash exch hpt sub exch vpt add M
  hpt2 vpt2 neg V currentpoint stroke M
  hpt2 neg 0 R hpt2 vpt2 V stroke} def
/TriU {stroke [] 0 setdash 2 copy vpt 1.12 mul add M
  hpt neg vpt -1.62 mul V
  hpt 2 mul 0 V
  hpt neg vpt 1.62 mul V closepath stroke
  Pnt} def
/Star {2 copy Pls Crs} def
/BoxF {stroke [] 0 setdash exch hpt sub exch vpt add M
  0 vpt2 neg V hpt2 0 V 0 vpt2 V
  hpt2 neg 0 V closepath fill} def
/TriUF {stroke [] 0 setdash vpt 1.12 mul add M
  hpt neg vpt -1.62 mul V
  hpt 2 mul 0 V
  hpt neg vpt 1.62 mul V closepath fill} def
/TriD {stroke [] 0 setdash 2 copy vpt 1.12 mul sub M
  hpt neg vpt 1.62 mul V
  hpt 2 mul 0 V
  hpt neg vpt -1.62 mul V closepath stroke
  Pnt} def
/TriDF {stroke [] 0 setdash vpt 1.12 mul sub M
  hpt neg vpt 1.62 mul V
  hpt 2 mul 0 V
  hpt neg vpt -1.62 mul V closepath fill} def
/DiaF {stroke [] 0 setdash vpt add M
  hpt neg vpt neg V hpt vpt neg V
  hpt vpt V hpt neg vpt V closepath fill} def
/Pent {stroke [] 0 setdash 2 copy gsave
  translate 0 hpt M 4 {72 rotate 0 hpt L} repeat
  closepath stroke grestore Pnt} def
/PentF {stroke [] 0 setdash gsave
  translate 0 hpt M 4 {72 rotate 0 hpt L} repeat
  closepath fill grestore} def
/Circle {stroke [] 0 setdash 2 copy
  hpt 0 360 arc stroke Pnt} def
/CircleF {stroke [] 0 setdash hpt 0 360 arc fill} def
/C0 {BL [] 0 setdash 2 copy moveto vpt 90 450 arc} bind def
/C1 {BL [] 0 setdash 2 copy moveto
	2 copy vpt 0 90 arc closepath fill
	vpt 0 360 arc closepath} bind def
/C2 {BL [] 0 setdash 2 copy moveto
	2 copy vpt 90 180 arc closepath fill
	vpt 0 360 arc closepath} bind def
/C3 {BL [] 0 setdash 2 copy moveto
	2 copy vpt 0 180 arc closepath fill
	vpt 0 360 arc closepath} bind def
/C4 {BL [] 0 setdash 2 copy moveto
	2 copy vpt 180 270 arc closepath fill
	vpt 0 360 arc closepath} bind def
/C5 {BL [] 0 setdash 2 copy moveto
	2 copy vpt 0 90 arc
	2 copy moveto
	2 copy vpt 180 270 arc closepath fill
	vpt 0 360 arc} bind def
/C6 {BL [] 0 setdash 2 copy moveto
	2 copy vpt 90 270 arc closepath fill
	vpt 0 360 arc closepath} bind def
/C7 {BL [] 0 setdash 2 copy moveto
	2 copy vpt 0 270 arc closepath fill
	vpt 0 360 arc closepath} bind def
/C8 {BL [] 0 setdash 2 copy moveto
	2 copy vpt 270 360 arc closepath fill
	vpt 0 360 arc closepath} bind def
/C9 {BL [] 0 setdash 2 copy moveto
	2 copy vpt 270 450 arc closepath fill
	vpt 0 360 arc closepath} bind def
/C10 {BL [] 0 setdash 2 copy 2 copy moveto vpt 270 360 arc closepath fill
	2 copy moveto
	2 copy vpt 90 180 arc closepath fill
	vpt 0 360 arc closepath} bind def
/C11 {BL [] 0 setdash 2 copy moveto
	2 copy vpt 0 180 arc closepath fill
	2 copy moveto
	2 copy vpt 270 360 arc closepath fill
	vpt 0 360 arc closepath} bind def
/C12 {BL [] 0 setdash 2 copy moveto
	2 copy vpt 180 360 arc closepath fill
	vpt 0 360 arc closepath} bind def
/C13 {BL [] 0 setdash 2 copy moveto
	2 copy vpt 0 90 arc closepath fill
	2 copy moveto
	2 copy vpt 180 360 arc closepath fill
	vpt 0 360 arc closepath} bind def
/C14 {BL [] 0 setdash 2 copy moveto
	2 copy vpt 90 360 arc closepath fill
	vpt 0 360 arc} bind def
/C15 {BL [] 0 setdash 2 copy vpt 0 360 arc closepath fill
	vpt 0 360 arc closepath} bind def
/Rec {newpath 4 2 roll moveto 1 index 0 rlineto 0 exch rlineto
	neg 0 rlineto closepath} bind def
/Square {dup Rec} bind def
/Bsquare {vpt sub exch vpt sub exch vpt2 Square} bind def
/S0 {BL [] 0 setdash 2 copy moveto 0 vpt rlineto BL Bsquare} bind def
/S1 {BL [] 0 setdash 2 copy vpt Square fill Bsquare} bind def
/S2 {BL [] 0 setdash 2 copy exch vpt sub exch vpt Square fill Bsquare} bind def
/S3 {BL [] 0 setdash 2 copy exch vpt sub exch vpt2 vpt Rec fill Bsquare} bind def
/S4 {BL [] 0 setdash 2 copy exch vpt sub exch vpt sub vpt Square fill Bsquare} bind def
/S5 {BL [] 0 setdash 2 copy 2 copy vpt Square fill
	exch vpt sub exch vpt sub vpt Square fill Bsquare} bind def
/S6 {BL [] 0 setdash 2 copy exch vpt sub exch vpt sub vpt vpt2 Rec fill Bsquare} bind def
/S7 {BL [] 0 setdash 2 copy exch vpt sub exch vpt sub vpt vpt2 Rec fill
	2 copy vpt Square fill Bsquare} bind def
/S8 {BL [] 0 setdash 2 copy vpt sub vpt Square fill Bsquare} bind def
/S9 {BL [] 0 setdash 2 copy vpt sub vpt vpt2 Rec fill Bsquare} bind def
/S10 {BL [] 0 setdash 2 copy vpt sub vpt Square fill 2 copy exch vpt sub exch vpt Square fill
	Bsquare} bind def
/S11 {BL [] 0 setdash 2 copy vpt sub vpt Square fill 2 copy exch vpt sub exch vpt2 vpt Rec fill
	Bsquare} bind def
/S12 {BL [] 0 setdash 2 copy exch vpt sub exch vpt sub vpt2 vpt Rec fill Bsquare} bind def
/S13 {BL [] 0 setdash 2 copy exch vpt sub exch vpt sub vpt2 vpt Rec fill
	2 copy vpt Square fill Bsquare} bind def
/S14 {BL [] 0 setdash 2 copy exch vpt sub exch vpt sub vpt2 vpt Rec fill
	2 copy exch vpt sub exch vpt Square fill Bsquare} bind def
/S15 {BL [] 0 setdash 2 copy Bsquare fill Bsquare} bind def
/D0 {gsave translate 45 rotate 0 0 S0 stroke grestore} bind def
/D1 {gsave translate 45 rotate 0 0 S1 stroke grestore} bind def
/D2 {gsave translate 45 rotate 0 0 S2 stroke grestore} bind def
/D3 {gsave translate 45 rotate 0 0 S3 stroke grestore} bind def
/D4 {gsave translate 45 rotate 0 0 S4 stroke grestore} bind def
/D5 {gsave translate 45 rotate 0 0 S5 stroke grestore} bind def
/D6 {gsave translate 45 rotate 0 0 S6 stroke grestore} bind def
/D7 {gsave translate 45 rotate 0 0 S7 stroke grestore} bind def
/D8 {gsave translate 45 rotate 0 0 S8 stroke grestore} bind def
/D9 {gsave translate 45 rotate 0 0 S9 stroke grestore} bind def
/D10 {gsave translate 45 rotate 0 0 S10 stroke grestore} bind def
/D11 {gsave translate 45 rotate 0 0 S11 stroke grestore} bind def
/D12 {gsave translate 45 rotate 0 0 S12 stroke grestore} bind def
/D13 {gsave translate 45 rotate 0 0 S13 stroke grestore} bind def
/D14 {gsave translate 45 rotate 0 0 S14 stroke grestore} bind def
/D15 {gsave translate 45 rotate 0 0 S15 stroke grestore} bind def
/DiaE {stroke [] 0 setdash vpt add M
  hpt neg vpt neg V hpt vpt neg V
  hpt vpt V hpt neg vpt V closepath stroke} def
/BoxE {stroke [] 0 setdash exch hpt sub exch vpt add M
  0 vpt2 neg V hpt2 0 V 0 vpt2 V
  hpt2 neg 0 V closepath stroke} def
/TriUE {stroke [] 0 setdash vpt 1.12 mul add M
  hpt neg vpt -1.62 mul V
  hpt 2 mul 0 V
  hpt neg vpt 1.62 mul V closepath stroke} def
/TriDE {stroke [] 0 setdash vpt 1.12 mul sub M
  hpt neg vpt 1.62 mul V
  hpt 2 mul 0 V
  hpt neg vpt -1.62 mul V closepath stroke} def
/PentE {stroke [] 0 setdash gsave
  translate 0 hpt M 4 {72 rotate 0 hpt L} repeat
  closepath stroke grestore} def
/CircE {stroke [] 0 setdash 
  hpt 0 360 arc stroke} def
/Opaque {gsave closepath 1 setgray fill grestore 0 setgray closepath} def
/DiaW {stroke [] 0 setdash vpt add M
  hpt neg vpt neg V hpt vpt neg V
  hpt vpt V hpt neg vpt V Opaque stroke} def
/BoxW {stroke [] 0 setdash exch hpt sub exch vpt add M
  0 vpt2 neg V hpt2 0 V 0 vpt2 V
  hpt2 neg 0 V Opaque stroke} def
/TriUW {stroke [] 0 setdash vpt 1.12 mul add M
  hpt neg vpt -1.62 mul V
  hpt 2 mul 0 V
  hpt neg vpt 1.62 mul V Opaque stroke} def
/TriDW {stroke [] 0 setdash vpt 1.12 mul sub M
  hpt neg vpt 1.62 mul V
  hpt 2 mul 0 V
  hpt neg vpt -1.62 mul V Opaque stroke} def
/PentW {stroke [] 0 setdash gsave
  translate 0 hpt M 4 {72 rotate 0 hpt L} repeat
  Opaque stroke grestore} def
/CircW {stroke [] 0 setdash 
  hpt 0 360 arc Opaque stroke} def
/BoxFill {gsave Rec 1 setgray fill grestore} def
/Density {
  /Fillden exch def
  currentrgbcolor
  /ColB exch def /ColG exch def /ColR exch def
  /ColR ColR Fillden mul Fillden sub 1 add def
  /ColG ColG Fillden mul Fillden sub 1 add def
  /ColB ColB Fillden mul Fillden sub 1 add def
  ColR ColG ColB setrgbcolor} def
/BoxColFill {gsave Rec PolyFill} def
/PolyFill {gsave Density fill grestore grestore} def
/h {rlineto rlineto rlineto gsave closepath fill grestore} bind def
%
% PostScript Level 1 Pattern Fill routine for rectangles
% Usage: x y w h s a XX PatternFill
%	x,y = lower left corner of box to be filled
%	w,h = width and height of box
%	  a = angle in degrees between lines and x-axis
%	 XX = 0/1 for no/yes cross-hatch
%
/PatternFill {gsave /PFa [ 9 2 roll ] def
  PFa 0 get PFa 2 get 2 div add PFa 1 get PFa 3 get 2 div add translate
  PFa 2 get -2 div PFa 3 get -2 div PFa 2 get PFa 3 get Rec
  gsave 1 setgray fill grestore clip
  currentlinewidth 0.5 mul setlinewidth
  /PFs PFa 2 get dup mul PFa 3 get dup mul add sqrt def
  0 0 M PFa 5 get rotate PFs -2 div dup translate
  0 1 PFs PFa 4 get div 1 add floor cvi
	{PFa 4 get mul 0 M 0 PFs V} for
  0 PFa 6 get ne {
	0 1 PFs PFa 4 get div 1 add floor cvi
	{PFa 4 get mul 0 2 1 roll M PFs 0 V} for
 } if
  stroke grestore} def
%
/languagelevel where
 {pop languagelevel} {1} ifelse
 2 lt
	{/InterpretLevel1 true def}
	{/InterpretLevel1 Level1 def}
 ifelse
%
% PostScript level 2 pattern fill definitions
%
/Level2PatternFill {
/Tile8x8 {/PaintType 2 /PatternType 1 /TilingType 1 /BBox [0 0 8 8] /XStep 8 /YStep 8}
	bind def
/KeepColor {currentrgbcolor [/Pattern /DeviceRGB] setcolorspace} bind def
<< Tile8x8
 /PaintProc {0.5 setlinewidth pop 0 0 M 8 8 L 0 8 M 8 0 L stroke} 
>> matrix makepattern
/Pat1 exch def
<< Tile8x8
 /PaintProc {0.5 setlinewidth pop 0 0 M 8 8 L 0 8 M 8 0 L stroke
	0 4 M 4 8 L 8 4 L 4 0 L 0 4 L stroke}
>> matrix makepattern
/Pat2 exch def
<< Tile8x8
 /PaintProc {0.5 setlinewidth pop 0 0 M 0 8 L
	8 8 L 8 0 L 0 0 L fill}
>> matrix makepattern
/Pat3 exch def
<< Tile8x8
 /PaintProc {0.5 setlinewidth pop -4 8 M 8 -4 L
	0 12 M 12 0 L stroke}
>> matrix makepattern
/Pat4 exch def
<< Tile8x8
 /PaintProc {0.5 setlinewidth pop -4 0 M 8 12 L
	0 -4 M 12 8 L stroke}
>> matrix makepattern
/Pat5 exch def
<< Tile8x8
 /PaintProc {0.5 setlinewidth pop -2 8 M 4 -4 L
	0 12 M 8 -4 L 4 12 M 10 0 L stroke}
>> matrix makepattern
/Pat6 exch def
<< Tile8x8
 /PaintProc {0.5 setlinewidth pop -2 0 M 4 12 L
	0 -4 M 8 12 L 4 -4 M 10 8 L stroke}
>> matrix makepattern
/Pat7 exch def
<< Tile8x8
 /PaintProc {0.5 setlinewidth pop 8 -2 M -4 4 L
	12 0 M -4 8 L 12 4 M 0 10 L stroke}
>> matrix makepattern
/Pat8 exch def
<< Tile8x8
 /PaintProc {0.5 setlinewidth pop 0 -2 M 12 4 L
	-4 0 M 12 8 L -4 4 M 8 10 L stroke}
>> matrix makepattern
/Pat9 exch def
/Pattern1 {PatternBgnd KeepColor Pat1 setpattern} bind def
/Pattern2 {PatternBgnd KeepColor Pat2 setpattern} bind def
/Pattern3 {PatternBgnd KeepColor Pat3 setpattern} bind def
/Pattern4 {PatternBgnd KeepColor Landscape {Pat5} {Pat4} ifelse setpattern} bind def
/Pattern5 {PatternBgnd KeepColor Landscape {Pat4} {Pat5} ifelse setpattern} bind def
/Pattern6 {PatternBgnd KeepColor Landscape {Pat9} {Pat6} ifelse setpattern} bind def
/Pattern7 {PatternBgnd KeepColor Landscape {Pat8} {Pat7} ifelse setpattern} bind def
} def
%
%
%End of PostScript Level 2 code
%
/PatternBgnd {
  TransparentPatterns {} {gsave 1 setgray fill grestore} ifelse
} def
%
% Substitute for Level 2 pattern fill codes with
% grayscale if Level 2 support is not selected.
%
/Level1PatternFill {
/Pattern1 {0.250 Density} bind def
/Pattern2 {0.500 Density} bind def
/Pattern3 {0.750 Density} bind def
/Pattern4 {0.125 Density} bind def
/Pattern5 {0.375 Density} bind def
/Pattern6 {0.625 Density} bind def
/Pattern7 {0.875 Density} bind def
} def
%
% Now test for support of Level 2 code
%
Level1 {Level1PatternFill} {Level2PatternFill} ifelse
%
/Symbol-Oblique /Symbol findfont [1 0 .167 1 0 0] makefont
dup length dict begin {1 index /FID eq {pop pop} {def} ifelse} forall
currentdict end definefont pop
/MFshow {
   { dup 5 get 3 ge
     { 5 get 3 eq {gsave} {grestore} ifelse }
     {dup dup 0 get findfont exch 1 get scalefont setfont
     [ currentpoint ] exch dup 2 get 0 exch R dup 5 get 2 ne {dup dup 6
     get exch 4 get {Gshow} {stringwidth pop 0 R} ifelse }if dup 5 get 0 eq
     {dup 3 get {2 get neg 0 exch R pop} {pop aload pop M} ifelse} {dup 5
     get 1 eq {dup 2 get exch dup 3 get exch 6 get stringwidth pop -2 div
     dup 0 R} {dup 6 get stringwidth pop -2 div 0 R 6 get
     show 2 index {aload pop M neg 3 -1 roll neg R pop pop} {pop pop pop
     pop aload pop M} ifelse }ifelse }ifelse }
     ifelse }
   forall} def
/Gswidth {dup type /stringtype eq {stringwidth} {pop (n) stringwidth} ifelse} def
/MFwidth {0 exch { dup 5 get 3 ge { 5 get 3 eq { 0 } { pop } ifelse }
 {dup 3 get{dup dup 0 get findfont exch 1 get scalefont setfont
     6 get Gswidth pop add} {pop} ifelse} ifelse} forall} def
/MLshow { currentpoint stroke M
  0 exch R
  Blacktext {gsave 0 setgray MFshow grestore} {MFshow} ifelse } bind def
/MRshow { currentpoint stroke M
  exch dup MFwidth neg 3 -1 roll R
  Blacktext {gsave 0 setgray MFshow grestore} {MFshow} ifelse } bind def
/MCshow { currentpoint stroke M
  exch dup MFwidth -2 div 3 -1 roll R
  Blacktext {gsave 0 setgray MFshow grestore} {MFshow} ifelse } bind def
/XYsave    { [( ) 1 2 true false 3 ()] } bind def
/XYrestore { [( ) 1 2 true false 4 ()] } bind def
end
%%EndProlog
gnudict begin
gsave
doclip
50 50 translate
0.050 0.050 scale
0 setgray
newpath
(Helvetica) findfont 140 scalefont setfont
gsave % colour palette begin
/maxcolors 64 def
/HSV2RGB {  exch dup 0.0 eq {pop exch pop dup dup} % achromatic gray
  { /HSVs exch def /HSVv exch def 6.0 mul dup floor dup 3 1 roll sub
     /HSVf exch def /HSVi exch cvi def /HSVp HSVv 1.0 HSVs sub mul def
	 /HSVq HSVv 1.0 HSVs HSVf mul sub mul def 
	 /HSVt HSVv 1.0 HSVs 1.0 HSVf sub mul sub mul def
	 /HSVi HSVi 6 mod def 0 HSVi eq {HSVv HSVt HSVp}
	 {1 HSVi eq {HSVq HSVv HSVp}{2 HSVi eq {HSVp HSVv HSVt}
	 {3 HSVi eq {HSVp HSVq HSVv}{4 HSVi eq {HSVt HSVp HSVv}
	 {HSVv HSVp HSVq} ifelse} ifelse} ifelse} ifelse} ifelse
  } ifelse} def
/Constrain {
  dup 0 lt {0 exch pop}{dup 1 gt {1 exch pop} if} ifelse} def
/YIQ2RGB {
  3 copy -1.702 mul exch -1.105 mul add add Constrain 4 1 roll
  3 copy -0.647 mul exch -0.272 mul add add Constrain 5 1 roll
  0.621 mul exch -0.956 mul add add Constrain 3 1 roll } def
/CMY2RGB {  1 exch sub exch 1 exch sub 3 2 roll 1 exch sub 3 1 roll exch } def
/XYZ2RGB {  3 copy -0.9017 mul exch -0.1187 mul add exch 0.0585 mul exch add
  Constrain 4 1 roll 3 copy -0.0279 mul exch 1.999 mul add exch
  -0.9844 mul add Constrain 5 1 roll -0.2891 mul exch -0.5338 mul add
  exch 1.91 mul exch add Constrain 3 1 roll} def
/SelectSpace {ColorSpace (HSV) eq {HSV2RGB}{ColorSpace (XYZ) eq {
  XYZ2RGB}{ColorSpace (CMY) eq {CMY2RGB}{ColorSpace (YIQ) eq {YIQ2RGB}
  if} ifelse} ifelse} ifelse} def
/InterpolatedColor true def
/grayindex {/gidx 0 def
  {GrayA gidx get grayv ge {exit} if /gidx gidx 1 add def} loop} def
/dgdx {grayv GrayA gidx get sub GrayA gidx 1 sub get
  GrayA gidx get sub div} def 
/redvalue {RedA gidx get RedA gidx 1 sub get
  RedA gidx get sub dgdxval mul add} def
/greenvalue {GreenA gidx get GreenA gidx 1 sub get
  GreenA gidx get sub dgdxval mul add} def
/bluevalue {BlueA gidx get BlueA gidx 1 sub get
  BlueA gidx get sub dgdxval mul add} def
/interpolate {
  grayindex grayv GrayA gidx get sub abs 1e-5 le
    {RedA gidx get GreenA gidx get BlueA gidx get}
    {/dgdxval dgdx def redvalue greenvalue bluevalue} ifelse} def
/GrayA [0 .0159 .0317 .0476 .0635 .0794 .0952 .1111 .127 .1429 .1587 .1746 
  .1905 .2063 .2222 .2381 .254 .2698 .2857 .3016 .3175 .3333 .3492 .3651 
  .381 .3968 .4127 .4286 .4444 .4603 .4762 .4921 .5079 .5238 .5397 .5556 
  .5714 .5873 .6032 .619 .6349 .6508 .6667 .6825 .6984 .7143 .7302 .746 
  .7619 .7778 .7937 .8095 .8254 .8413 .8571 .873 .8889 .9048 .9206 .9365 
  .9524 .9683 .9841 1 ] def
/RedA [.057 .0642 .0715 .0787 .086 .0932 .1004 .1077 .1187 .1559 .1932 
  .2305 .2677 .305 .3423 .3795 .4168 .4541 .4914 .5286 .5659 .6032 .6404 
  .6777 .7054 .7172 .7289 .7406 .7524 .7641 .7759 .7876 .7994 .8111 .8229 
  .8346 .8464 .8581 .8698 .8816 .8627 .8254 .7882 .7509 .7136 .6764 .6391 
  .6018 .5645 .5273 .49 .4527 .4155 .3782 .3409 .3037 .2824 .2634 .2444 
  .2254 .2065 .1875 .1685 .1495 ] def
/GreenA [.057 .0642 .0715 .0787 .086 .0932 .1004 .1077 .1187 .1559 .1932 
  .2305 .2677 .305 .3423 .3795 .4168 .4541 .4914 .5286 .5659 .6032 .6404 
  .6777 .7054 .7172 .7289 .7406 .7524 .7641 .7759 .7876 .7994 .8111 .8229 
  .8346 .8464 .8581 .8698 .8816 .8627 .8254 .7882 .7509 .7136 .6764 .6391 
  .6018 .5645 .5273 .49 .4527 .4155 .3782 .3409 .3037 .2824 .2634 .2444 
  .2254 .2065 .1875 .1685 .1495 ] def
/BlueA [.057 .0642 .0715 .0787 .086 .0932 .1004 .1077 .1187 .1559 .1932 
  .2305 .2677 .305 .3423 .3795 .4168 .4541 .4914 .5286 .5659 .6032 .6404 
  .6777 .7054 .7172 .7289 .7406 .7524 .7641 .7759 .7876 .7994 .8111 .8229 
  .8346 .8464 .8581 .8698 .8816 .8627 .8254 .7882 .7509 .7136 .6764 .6391 
  .6018 .5645 .5273 .49 .4527 .4155 .3782 .3409 .3037 .2824 .2634 .2444 
  .2254 .2065 .1875 .1685 .1495 ] def
/pm3dround {maxcolors 0 gt {dup 1 ge
	{pop 1} {maxcolors mul floor maxcolors 1 sub div} ifelse} if} def
/pm3dGamma 1.0 1.5 Gamma mul div def
/ColorSpace (RGB) def
Color InterpolatedColor or { % COLOUR vs. GRAY map
  InterpolatedColor { %% Interpolation vs. RGB-Formula
    /g {stroke pm3dround /grayv exch def interpolate
        SelectSpace setrgbcolor} bind def
  }{
  /g {stroke pm3dround dup cF7 Constrain exch dup cF5 Constrain exch cF15 Constrain 
       SelectSpace setrgbcolor} bind def
  } ifelse
}{
  /g {stroke pm3dround pm3dGamma exp setgray} bind def
} ifelse
0.500 UL
LTb
1475 928 M
88 0 V
8833 0 R
-88 0 V
stroke
1391 928 M
[ [(Helvetica) 120.0 0.0 true true 0 (0)]
] -40.0 MRshow
0.500 UL
LTb
1475 1807 M
88 0 V
8833 0 R
-88 0 V
stroke
1391 1807 M
[ [(Helvetica) 120.0 0.0 true true 0 (0.1)]
] -40.0 MRshow
0.500 UL
LTb
1475 2687 M
88 0 V
8833 0 R
-88 0 V
stroke
1391 2687 M
[ [(Helvetica) 120.0 0.0 true true 0 (0.2)]
] -40.0 MRshow
0.500 UL
LTb
1475 3566 M
88 0 V
8833 0 R
-88 0 V
stroke
1391 3566 M
[ [(Helvetica) 120.0 0.0 true true 0 (0.3)]
] -40.0 MRshow
0.500 UL
LTb
1475 4445 M
88 0 V
8833 0 R
-88 0 V
stroke
1391 4445 M
[ [(Helvetica) 120.0 0.0 true true 0 (0.4)]
] -40.0 MRshow
0.500 UL
LTb
1475 5324 M
88 0 V
8833 0 R
-88 0 V
stroke
1391 5324 M
[ [(Helvetica) 120.0 0.0 true true 0 (0.5)]
] -40.0 MRshow
0.500 UL
LTb
1475 6203 M
88 0 V
8833 0 R
-88 0 V
stroke
1391 6203 M
[ [(Helvetica) 120.0 0.0 true true 0 (0.6)]
] -40.0 MRshow
0.500 UL
LTb
1475 7083 M
88 0 V
8833 0 R
-88 0 V
stroke
1391 7083 M
[ [(Helvetica) 120.0 0.0 true true 0 (0.7)]
] -40.0 MRshow
0.500 UL
LTb
1475 7962 M
88 0 V
8833 0 R
-88 0 V
stroke
1391 7962 M
[ [(Helvetica) 120.0 0.0 true true 0 (0.8)]
] -40.0 MRshow
0.500 UL
LTb
1475 928 M
0 88 V
0 6946 R
0 -88 V
stroke
1475 788 M
[ [(Helvetica) 120.0 0.0 true true 0 (10)]
[(Helvetica) 96.0 60.0 true true 0 (-5)]
] -52.0 MCshow
0.500 UL
LTb
2749 928 M
0 88 V
0 6946 R
0 -88 V
stroke
2749 788 M
[ [(Helvetica) 120.0 0.0 true true 0 (10)]
[(Helvetica) 96.0 60.0 true true 0 (-4)]
] -52.0 MCshow
0.500 UL
LTb
4024 928 M
0 88 V
0 6946 R
0 -88 V
stroke
4024 788 M
[ [(Helvetica) 120.0 0.0 true true 0 (10)]
[(Helvetica) 96.0 60.0 true true 0 (-3)]
] -52.0 MCshow
0.500 UL
LTb
5298 928 M
0 88 V
0 6946 R
0 -88 V
stroke
5298 788 M
[ [(Helvetica) 120.0 0.0 true true 0 (10)]
[(Helvetica) 96.0 60.0 true true 0 (-2)]
] -52.0 MCshow
0.500 UL
LTb
6573 928 M
0 88 V
0 6946 R
0 -88 V
stroke
6573 788 M
[ [(Helvetica) 120.0 0.0 true true 0 (10)]
[(Helvetica) 96.0 60.0 true true 0 (-1)]
] -52.0 MCshow
0.500 UL
LTb
7847 928 M
0 88 V
0 6946 R
0 -88 V
stroke
7847 788 M
[ [(Helvetica) 120.0 0.0 true true 0 (10)]
[(Helvetica) 96.0 60.0 true true 0 (0)]
] -52.0 MCshow
0.500 UL
LTb
9122 928 M
0 88 V
0 6946 R
0 -88 V
stroke
9122 788 M
[ [(Helvetica) 120.0 0.0 true true 0 (10)]
[(Helvetica) 96.0 60.0 true true 0 (1)]
] -52.0 MCshow
0.500 UL
LTb
10396 928 M
0 88 V
0 6946 R
0 -88 V
stroke
10396 788 M
[ [(Helvetica) 120.0 0.0 true true 0 (10)]
[(Helvetica) 96.0 60.0 true true 0 (2)]
] -52.0 MCshow
0.500 UL
LTb
0.500 UL
LTb
1475 7962 N
0 -7034 V
8921 0 V
0 7034 V
-8921 0 V
Z stroke
1.000 UP
0.500 UL
LTb
% Begin plot #1
1.000 UP
0.500 UL
LT0
LCb setrgbcolor
9745 7829 M
[ [(Helvetica) 120.0 0.0 true true 0 (Simulacion)]
] -40.0 MRshow
LT0
2033 2239 Circle
2226 2526 Circle
2500 2467 Circle
2596 1767 Circle
2869 2063 Circle
2919 2104 Circle
2928 1886 Circle
2966 1982 Circle
3016 2181 Circle
3023 2251 Circle
3067 2125 Circle
3069 2782 Circle
3085 1843 Circle
3106 1842 Circle
3134 1932 Circle
3177 2597 Circle
3178 3173 Circle
3207 2303 Circle
3209 2638 Circle
3217 2794 Circle
3292 2098 Circle
3361 2089 Circle
3384 2704 Circle
3405 2403 Circle
3420 2562 Circle
3422 2459 Circle
3444 2375 Circle
3448 2731 Circle
3459 2466 Circle
3467 3172 Circle
3470 2651 Circle
3504 2098 Circle
3513 2115 Circle
3547 2611 Circle
3548 2860 Circle
3598 2117 Circle
3622 2465 Circle
3623 2250 Circle
3655 2653 Circle
3668 1974 Circle
3673 2337 Circle
3675 2087 Circle
3677 2494 Circle
3686 2208 Circle
3693 2235 Circle
3694 2751 Circle
3700 1878 Circle
3721 2204 Circle
3736 2646 Circle
3743 2009 Circle
3753 2535 Circle
3793 2685 Circle
3813 1934 Circle
3825 2643 Circle
3839 2287 Circle
3849 2223 Circle
3857 2152 Circle
3875 1695 Circle
3884 2790 Circle
3895 2331 Circle
3899 1815 Circle
3905 2198 Circle
3910 2638 Circle
3917 2169 Circle
3929 2499 Circle
3936 1903 Circle
3977 1912 Circle
3984 2085 Circle
3987 2424 Circle
4001 2401 Circle
4002 2509 Circle
4021 1930 Circle
4025 1968 Circle
4045 1859 Circle
4085 2245 Circle
4090 2080 Circle
4098 2047 Circle
4099 2508 Circle
4109 2146 Circle
4115 1710 Circle
4136 2097 Circle
4140 2053 Circle
4146 1681 Circle
4150 2420 Circle
4167 2547 Circle
4169 2382 Circle
4174 2103 Circle
4188 2225 Circle
4189 1966 Circle
4218 2580 Circle
4221 2414 Circle
4234 1906 Circle
4236 2772 Circle
4238 2429 Circle
4242 3035 Circle
4248 2281 Circle
4308 1984 Circle
4312 2313 Circle
4332 2048 Circle
4341 2342 Circle
4354 2204 Circle
4358 2154 Circle
4371 2074 Circle
4374 2789 Circle
4376 2595 Circle
4377 1960 Circle
4386 2396 Circle
4388 1937 Circle
4390 2475 Circle
4393 1861 Circle
4405 2525 Circle
4426 2753 Circle
4447 2415 Circle
4456 2121 Circle
4463 2949 Circle
4464 2261 Circle
4465 2199 Circle
4496 2184 Circle
4507 1992 Circle
4538 2414 Circle
4544 2255 Circle
4558 2648 Circle
4566 2479 Circle
4594 2620 Circle
4636 2008 Circle
4641 3480 Circle
4738 2296 Circle
4759 2260 Circle
4804 2520 Circle
4826 2741 Circle
4847 2446 Circle
4855 2038 Circle
4894 1856 Circle
5074 2461 Circle
5093 2650 Circle
5101 2679 Circle
5342 2778 Circle
5527 2944 Circle
5656 5092 Circle
5746 2757 Circle
5831 3961 Circle
5905 3183 Circle
5962 2376 Circle
5993 3718 Circle
6116 2765 Circle
6118 2672 Circle
6125 3862 Circle
6130 2800 Circle
6135 3425 Circle
6140 2638 Circle
6150 3372 Circle
6183 2535 Circle
6185 3935 Circle
6201 2592 Circle
6218 3822 Circle
6238 2718 Circle
6252 3560 Circle
6258 3514 Circle
6263 2206 Circle
6306 2662 Circle
6333 4148 Circle
6333 3403 Circle
6336 4408 Circle
6405 4186 Circle
6414 4517 Circle
6438 2667 Circle
6441 2933 Circle
6444 3591 Circle
6458 3623 Circle
6458 3543 Circle
6471 3042 Circle
6474 4148 Circle
6486 5718 Circle
6491 2582 Circle
6501 3712 Circle
6512 3592 Circle
6524 2939 Circle
6540 3839 Circle
6551 3194 Circle
6552 3831 Circle
6571 3636 Circle
6580 4116 Circle
6589 3443 Circle
6594 3816 Circle
6595 3933 Circle
6598 4985 Circle
6606 3902 Circle
6616 2715 Circle
6626 2842 Circle
6635 4741 Circle
6642 4117 Circle
6656 2910 Circle
6679 2846 Circle
6698 4410 Circle
6700 4214 Circle
6720 3695 Circle
6720 4810 Circle
6720 3435 Circle
6733 3637 Circle
6751 4794 Circle
6760 4009 Circle
6772 3806 Circle
6775 3453 Circle
6780 3126 Circle
6790 4403 Circle
6801 4427 Circle
6808 4420 Circle
6818 4069 Circle
6826 3020 Circle
6830 3240 Circle
6837 3841 Circle
6843 3540 Circle
6843 3563 Circle
6846 1995 Circle
6846 4462 Circle
6847 3876 Circle
6851 4181 Circle
6851 3224 Circle
6851 3282 Circle
6857 2653 Circle
6858 2237 Circle
6865 3207 Circle
6866 5845 Circle
6868 3861 Circle
6869 2967 Circle
6876 3612 Circle
6883 5548 Circle
6890 1883 Circle
6891 2694 Circle
6897 2967 Circle
6901 3680 Circle
6903 3517 Circle
6920 2914 Circle
6923 3099 Circle
6931 2339 Circle
6936 2227 Circle
6937 3657 Circle
6939 4303 Circle
6942 4728 Circle
6945 4859 Circle
6946 2666 Circle
6952 4357 Circle
6952 1867 Circle
6955 2328 Circle
6963 3865 Circle
6966 5102 Circle
6972 3667 Circle
6973 4357 Circle
6982 3814 Circle
6987 3564 Circle
7001 4470 Circle
7002 2985 Circle
7002 3117 Circle
7004 3020 Circle
7009 4018 Circle
7009 5070 Circle
7015 3779 Circle
7030 3445 Circle
7031 3865 Circle
7033 3889 Circle
7034 4326 Circle
7035 3645 Circle
7038 4083 Circle
7041 3960 Circle
7044 3020 Circle
7051 3948 Circle
7052 2678 Circle
7060 3946 Circle
7061 5458 Circle
7061 2649 Circle
7072 3577 Circle
7073 3433 Circle
7075 3498 Circle
7076 5358 Circle
7084 3181 Circle
7086 4276 Circle
7094 3050 Circle
7097 3809 Circle
7109 3470 Circle
7111 3360 Circle
7116 2905 Circle
7120 4523 Circle
7122 2825 Circle
7123 2461 Circle
7129 4075 Circle
7139 4178 Circle
7139 4793 Circle
7140 3175 Circle
7141 2064 Circle
7153 2904 Circle
7155 3954 Circle
7158 2370 Circle
7159 3776 Circle
7160 4734 Circle
7164 3528 Circle
7165 2308 Circle
7168 3402 Circle
7172 3519 Circle
7183 4988 Circle
7190 4587 Circle
7194 2546 Circle
7205 2341 Circle
7208 2844 Circle
7218 4595 Circle
7218 3209 Circle
7222 4935 Circle
7228 3093 Circle
7230 3956 Circle
7241 3187 Circle
7248 3855 Circle
7256 4557 Circle
7261 4227 Circle
7267 3546 Circle
7267 3009 Circle
7276 5355 Circle
7281 3336 Circle
7284 4753 Circle
7287 4016 Circle
7287 4321 Circle
7290 4136 Circle
7293 3546 Circle
7297 3882 Circle
7313 4028 Circle
7319 4782 Circle
7322 4358 Circle
7326 4636 Circle
7333 3249 Circle
7335 4327 Circle
7339 6010 Circle
7346 3861 Circle
7349 3933 Circle
7361 5500 Circle
7366 3685 Circle
7368 2656 Circle
7372 4823 Circle
7381 3701 Circle
7385 4893 Circle
7388 4505 Circle
7389 4590 Circle
7390 5479 Circle
7392 3239 Circle
7393 4076 Circle
7394 5699 Circle
7397 5500 Circle
7399 3364 Circle
7412 6004 Circle
7416 3064 Circle
7427 4084 Circle
7443 3356 Circle
7466 2892 Circle
7482 2965 Circle
7483 3440 Circle
7488 4476 Circle
7491 2677 Circle
7494 5141 Circle
7501 3982 Circle
7504 4339 Circle
7516 2928 Circle
7518 5640 Circle
7526 3826 Circle
7527 2892 Circle
7529 5670 Circle
7536 4503 Circle
7540 3505 Circle
7543 4210 Circle
7545 4147 Circle
7545 2463 Circle
7552 7767 Circle
7557 2302 Circle
7558 4181 Circle
7561 2599 Circle
7567 6763 Circle
7569 4548 Circle
7569 2291 Circle
7570 6258 Circle
7589 2369 Circle
7599 3803 Circle
7599 2851 Circle
7608 4327 Circle
7609 3220 Circle
7639 7271 Circle
7640 3107 Circle
7654 4483 Circle
7654 2509 Circle
7670 4511 Circle
7673 6248 Circle
7676 5230 Circle
7677 3923 Circle
7678 4379 Circle
7704 6976 Circle
7706 4156 Circle
7711 3586 Circle
7720 3303 Circle
7731 2388 Circle
7760 4709 Circle
7761 4025 Circle
7771 3894 Circle
7783 3297 Circle
7787 2586 Circle
7798 4160 Circle
7798 5808 Circle
7827 5306 Circle
7832 4357 Circle
7834 3580 Circle
7852 5160 Circle
7860 5001 Circle
7860 5146 Circle
7866 3740 Circle
7875 5766 Circle
7875 5089 Circle
7877 7727 Circle
7886 2872 Circle
7905 5841 Circle
7923 3804 Circle
7924 2761 Circle
7929 4437 Circle
7938 2141 Circle
7943 4541 Circle
7968 3771 Circle
7974 6081 Circle
8000 4162 Circle
8003 2458 Circle
8004 5237 Circle
8013 5035 Circle
8015 4014 Circle
8061 5081 Circle
8068 5859 Circle
8100 3598 Circle
8104 2434 Circle
8107 3508 Circle
8108 2847 Circle
8112 4880 Circle
8115 5198 Circle
8116 4656 Circle
8122 4751 Circle
8125 5236 Circle
8125 2854 Circle
8132 3923 Circle
8140 5481 Circle
8168 5876 Circle
8169 3060 Circle
8178 5639 Circle
8179 4696 Circle
8202 2729 Circle
8216 4345 Circle
8220 5569 Circle
8231 2850 Circle
8236 2534 Circle
8238 2984 Circle
8256 5031 Circle
8263 3967 Circle
8274 4966 Circle
8277 3618 Circle
8296 4063 Circle
8303 2967 Circle
8328 3913 Circle
8331 6955 Circle
8337 5958 Circle
8338 3656 Circle
8341 4450 Circle
8342 3398 Circle
8395 6096 Circle
8408 3069 Circle
8424 3519 Circle
8427 2126 Circle
8450 4323 Circle
8478 3418 Circle
8507 4861 Circle
8523 3514 Circle
8528 4129 Circle
8556 3963 Circle
8557 5652 Circle
8574 2606 Circle
8589 4389 Circle
8606 4797 Circle
8610 4682 Circle
8616 4549 Circle
8670 5551 Circle
8679 2194 Circle
8715 3856 Circle
8718 2708 Circle
8755 4161 Circle
8769 3365 Circle
8786 2768 Circle
8792 3737 Circle
8794 3716 Circle
8825 5635 Circle
8848 6203 Circle
8878 3440 Circle
8880 6365 Circle
8885 3222 Circle
8891 4680 Circle
8979 4766 Circle
9018 3731 Circle
9025 3341 Circle
9259 3873 Circle
9312 4473 Circle
9329 3486 Circle
9742 4845 Circle
9851 4205 Circle
10028 7829 Circle
% End plot #1
% Begin plot #2
0.500 UL
LT1
LCb setrgbcolor
9745 7689 M
[ [(Helvetica) 120.0 0.0 true true 0 (K)]
] -40.0 MRshow
LT1
9829 7689 M
399 0 V
2033 2687 M
193 0 V
274 0 V
96 0 V
273 0 V
50 0 V
9 0 V
38 0 V
50 0 V
7 0 V
44 0 V
2 0 V
16 0 V
21 0 V
28 0 V
43 0 V
1 0 V
29 0 V
2 0 V
8 0 V
75 0 V
69 0 V
23 0 V
21 0 V
15 0 V
2 0 V
22 0 V
4 0 V
11 0 V
8 0 V
3 0 V
34 0 V
9 0 V
34 0 V
1 0 V
50 0 V
24 0 V
1 0 V
32 0 V
13 0 V
5 0 V
2 0 V
2 0 V
9 0 V
7 0 V
1 0 V
6 0 V
21 0 V
15 0 V
7 0 V
10 0 V
40 0 V
20 0 V
12 0 V
14 0 V
10 0 V
8 0 V
18 0 V
9 0 V
11 0 V
4 0 V
6 0 V
5 0 V
7 0 V
12 0 V
7 0 V
41 0 V
7 0 V
3 0 V
14 0 V
1 0 V
19 0 V
4 0 V
20 0 V
40 0 V
5 0 V
8 0 V
1 0 V
10 0 V
6 0 V
21 0 V
4 0 V
6 0 V
4 0 V
17 0 V
2 0 V
5 0 V
14 0 V
1 0 V
29 0 V
3 0 V
13 0 V
2 0 V
2 0 V
4 0 V
6 0 V
60 0 V
4 0 V
20 0 V
9 0 V
13 0 V
4 0 V
13 0 V
stroke 4371 2687 M
3 0 V
2 0 V
1 0 V
9 0 V
2 0 V
2 0 V
3 0 V
12 0 V
21 0 V
21 0 V
9 0 V
7 0 V
1 0 V
1 0 V
31 0 V
11 0 V
31 0 V
6 0 V
14 0 V
8 0 V
28 0 V
42 0 V
5 0 V
97 0 V
21 0 V
45 0 V
22 0 V
21 0 V
8 0 V
39 0 V
180 0 V
19 0 V
8 0 V
241 0 V
185 0 V
129 0 V
90 0 V
85 0 V
74 0 V
57 0 V
31 0 V
123 0 V
2 0 V
7 0 V
5 0 V
5 0 V
5 0 V
10 0 V
33 0 V
2 0 V
16 0 V
17 0 V
20 0 V
14 0 V
6 0 V
5 0 V
43 0 V
27 0 V
3 0 V
69 0 V
9 0 V
24 0 V
3 0 V
3 0 V
14 0 V
13 0 V
3 0 V
12 0 V
5 0 V
10 0 V
11 0 V
12 0 V
16 0 V
11 0 V
1 0 V
19 0 V
9 0 V
9 0 V
5 0 V
1 0 V
3 0 V
8 0 V
10 0 V
10 0 V
9 0 V
7 0 V
14 0 V
23 0 V
19 0 V
2 0 V
20 0 V
13 0 V
18 0 V
9 0 V
12 0 V
3 0 V
5 0 V
10 0 V
11 0 V
7 0 V
10 0 V
8 0 V
4 0 V
7 0 V
stroke 6837 2687 M
6 0 V
3 0 V
1 0 V
4 0 V
6 0 V
1 0 V
7 0 V
1 0 V
2 0 V
1 0 V
7 0 V
7 0 V
7 0 V
1 0 V
6 0 V
4 0 V
2 0 V
17 0 V
3 0 V
8 0 V
5 0 V
1 0 V
2 0 V
3 0 V
3 0 V
1 0 V
6 0 V
3 0 V
8 0 V
3 0 V
6 0 V
1 0 V
9 0 V
5 0 V
14 0 V
1 0 V
2 0 V
5 0 V
6 0 V
15 0 V
1 0 V
2 0 V
1 0 V
1 0 V
3 0 V
3 0 V
3 0 V
7 0 V
1 0 V
8 0 V
1 0 V
11 0 V
1 0 V
2 0 V
1 0 V
8 0 V
2 0 V
8 0 V
3 0 V
12 0 V
2 0 V
5 0 V
4 0 V
2 0 V
1 0 V
6 0 V
10 0 V
1 0 V
1 0 V
12 0 V
2 0 V
3 0 V
1 0 V
1 0 V
4 0 V
1 0 V
3 0 V
4 0 V
11 0 V
7 0 V
4 0 V
11 0 V
3 0 V
10 0 V
4 0 V
6 0 V
2 0 V
11 0 V
7 0 V
8 0 V
5 0 V
6 0 V
9 0 V
5 0 V
3 0 V
3 0 V
3 0 V
3 0 V
4 0 V
16 0 V
6 0 V
3 0 V
4 0 V
7 0 V
stroke 7333 2687 M
2 0 V
4 0 V
7 0 V
3 0 V
12 0 V
5 0 V
2 0 V
4 0 V
9 0 V
4 0 V
3 0 V
1 0 V
1 0 V
2 0 V
1 0 V
1 0 V
3 0 V
2 0 V
13 0 V
4 0 V
11 0 V
16 0 V
23 0 V
16 0 V
1 0 V
5 0 V
3 0 V
3 0 V
7 0 V
3 0 V
12 0 V
2 0 V
8 0 V
1 0 V
2 0 V
7 0 V
4 0 V
3 0 V
2 0 V
7 0 V
5 0 V
1 0 V
3 0 V
6 0 V
2 0 V
1 0 V
19 0 V
10 0 V
9 0 V
1 0 V
30 0 V
1 0 V
14 0 V
16 0 V
3 0 V
3 0 V
1 0 V
1 0 V
26 0 V
2 0 V
5 0 V
9 0 V
11 0 V
29 0 V
1 0 V
10 0 V
12 0 V
4 0 V
11 0 V
29 0 V
5 0 V
2 0 V
18 0 V
8 0 V
6 0 V
9 0 V
2 0 V
9 0 V
19 0 V
18 0 V
1 0 V
5 0 V
9 0 V
5 0 V
25 0 V
6 0 V
26 0 V
3 0 V
1 0 V
9 0 V
2 0 V
46 0 V
7 0 V
32 0 V
4 0 V
3 0 V
1 0 V
4 0 V
3 0 V
1 0 V
6 0 V
3 0 V
7 0 V
8 0 V
stroke 8140 2687 M
28 0 V
1 0 V
9 0 V
1 0 V
23 0 V
14 0 V
4 0 V
11 0 V
5 0 V
2 0 V
18 0 V
7 0 V
11 0 V
3 0 V
19 0 V
7 0 V
25 0 V
3 0 V
6 0 V
1 0 V
3 0 V
1 0 V
53 0 V
13 0 V
16 0 V
3 0 V
23 0 V
28 0 V
29 0 V
16 0 V
5 0 V
28 0 V
1 0 V
17 0 V
15 0 V
17 0 V
4 0 V
6 0 V
54 0 V
9 0 V
36 0 V
3 0 V
37 0 V
14 0 V
17 0 V
6 0 V
2 0 V
31 0 V
23 0 V
30 0 V
2 0 V
5 0 V
6 0 V
88 0 V
39 0 V
7 0 V
234 0 V
53 0 V
17 0 V
413 0 V
109 0 V
% End plot #2
1.000 UP
stroke
LTb
grestore % colour palette end
stroke
grestore
end
showpage
%%Trailer
%%DocumentFonts: Helvetica
